#fef9f6
#fef9f6
#fef9f6
#fef9f6
#fef9f6
#fef9f6
#fef9f6
#fef9f6
#fef9f6
#fef9f6
#fef9f6
#fef9f6
#fef9f6
#fef9f6
#fef9f6
#fef9f6
#fef9f6
#fef9f6
#fef9f6
#fef9f6
#fef9f6
#fef9f6
#fef9f6
#fef9f6
#fef9f6
#fef9f6
#fef9f6
#fef9f6
#fef9f6
#fef9f6
#fef9f6
#fef9f6
#fef9f6
#fef9f6
#fef9f6
#fef9f6
#fef9f6
#fef9f6
#fef9f6
#fef9f6
#fef9f6
#fef9f6
#fef9f6
#fef9f6
#fef9f6
#fef9f6
#fef9f6
#fef9f6
#fef9f6
#fef9f6
#fef9f6
#fef9f6
#fef9f6
#fef9f6
#fef9f6
#fef9f6
#fef9f6
#fef9f6
#fef9f6
#fef9f6
#fef9f6
#fef9f6
#fef9f6
#fef9f6
#fef9f6
#fef9f6
#fef9f6
#fef9f6
#fef9f6
#fef9f6
#fef9f6
#fef9f6
#fef9f6
#fef9f6
#fef9f6
#fef9f6
#fef9f6
#fef9f6
#fef9f6
#fef9f6
#fef9f6
#fef9f6
#fef9f6
#fef9f6
#fef9f6
#fef9f6
#fef9f6
#fef9f6
#fef9f6
#fef9f6
#fef9f6
#fef9f6
#fef9f6
#fef9f6
#fef9f6
#fef9f6
#fef9f6
#fef9f6
#fef9f6
#fef9f6
#fef9f6
#fef9f6
#fef9f6
#fef9f6
#ff200d
#ff200d
#ff200d
#ff200d
#ff200d
#ff200d
#ff200d
#fef9f6
#fef9f6
#fef9f6
#fef9f6
#fef9f6
#fef9f6
#fef9f6
#fef9f6
#fef9f6
#fef9f6
#fef9f6
#fef9f6
#fef9f6
#fef9f6
#fef9f6
#fef9f6
#fef9f6
#fef9f6
#fef9f6
#fef9f6
#fef9f6
#fef9f6
#fef9f6
#fef9f6
#fef9f6
#fef9f6
#fef9f6
#fef9f6
#fef9f6
#fef9f6
#fef9f6
#fef9f6
#fef9f6
#fef9f6
#fef9f6
#fef9f6
#fef9f6
#fef9f6
#fef9f6
#fef9f6
#fef9f6
#fef9f6
#fef9f6
#fef9f6
#fef9f6
#fef9f6
#fef9f6
#fef9f6
#fef9f6
#fef9f6
#fef9f6
#fef9f6
#fef9f6
#fef9f6
#fef9f6
#fef9f6
#fef9f6
#fef9f6
#fef9f6
#fef9f6
#fef9f6
#fef9f6
#fef9f6
#fef9f6
#fef9f6
#fef9f6
#fef9f6
#fef9f6
#fef9f6
#fef9f6
#ff200d
#ff200d
#ff200d
#ff200d
#ff200d
#ff200d
#ff200d
#ff200d
#ff200d
#ff200d
#ff200d
#ff200d
#fef9f6
#fef9f6
#fef9f6
#fef9f6
#fef9f6
#fef9f6
#fef9f6
#fef9f6
#fef9f6
#fef9f6
#fef9f6
#fef9f6
#fef9f6
#fef9f6
#fef9f6
#fef9f6
#fef9f6
#fef9f6
#fef9f6
#fef9f6
#fef9f6
#fef9f6
#fef9f6
#fef9f6
#fef9f6
#fef9f6
#fef9f6
#fef9f6
#fef9f6
#fef9f6
#fef9f6
#fef9f6
#fef9f6
#fef9f6
#fef9f6
#fef9f6
#fef9f6
#fef9f6
#fef9f6
#fef9f6
#fef9f6
#fef9f6
#fef9f6
#fef9f6
#fef9f6
#fef9f6
#fef9f6
#fef9f6
#fef9f6
#fef9f6
#fef9f6
#fef9f6
#fef9f6
#fef9f6
#fef9f6
#fef9f6
#fef9f6
#fef9f6
#fef9f6
#fef9f6
#fef9f6
#fef9f6
#fef9f6
#ff200d
#fef9f6
#fef9f6
#ff200d
#ff200d
#ff200d
#ff200d
#ff200d
#ff200d
#ff200d
#ff200d
#ff200d
#ff200d
#ff200d
#ff200d
#ff200d
#ff200d
#ff200d
#ff200d
#fef9f6
#fef9f6
#fef9f6
#fef9f6
#fef9f6
#fef9f6
#fef9f6
#fef9f6
#fef9f6
#fef9f6
#fef9f6
#fef9f6
#fef9f6
#fef9f6
#fef9f6
#fef9f6
#fef9f6
#fef9f6
#fef9f6
#fef9f6
#fef9f6
#fef9f6
#fef9f6
#fef9f6
#fef9f6
#fef9f6
#fef9f6
#fef9f6
#fef9f6
#fef9f6
#fef9f6
#fef9f6
#fef9f6
#fef9f6
#fef9f6
#fef9f6
#fef9f6
#fef9f6
#fef9f6
#fef9f6
#fef9f6
#fef9f6
#fef9f6
#fef9f6
#fef9f6
#fef9f6
#fef9f6
#fef9f6
#fef9f6
#fef9f6
#fef9f6
#fef9f6
#fef9f6
#fef9f6
#fef9f6
#fef9f6
#fef9f6
#fef9f6
#fef9f6
#fef9f6
#ff200d
#ff200d
#ff200d
#ff200d
#ff200d
#ff200d
#ff200d
#ff200d
#ff200d
#ff200d
#ff200d
#ff200d
#ff200d
#ff200d
#ff200d
#ff200d
#ff200d
#ff200d
#ff200d
#ff200d
#ff200d
#fef9f6
#fef9f6
#fef9f6
#fef9f6
#fef9f6
#fef9f6
#fef9f6
#fef9f6
#fef9f6
#fef9f6
#fef9f6
#fef9f6
#fef9f6
#fef9f6
#fef9f6
#fef9f6
#fef9f6
#fef9f6
#fef9f6
#fef9f6
#fef9f6
#fef9f6
#fef9f6
#fef9f6
#fef9f6
#fef9f6
#fef9f6
#fef9f6
#fef9f6
#fef9f6
#fef9f6
#fef9f6
#fef9f6
#fef9f6
#fef9f6
#fef9f6
#fef9f6
#fef9f6
#fef9f6
#fef9f6
#fef9f6
#fef9f6
#fef9f6
#fef9f6
#fef9f6
#fef9f6
#fef9f6
#fef9f6
#fef9f6
#fef9f6
#fef9f6
#fef9f6
#fef9f6
#fef9f6
#fef9f6
#fef9f6
#fef9f6
#fef9f6
#fef9f6
#ff200d
#ff200d
#ff200d
#ff200d
#ff200d
#ff200d
#ff200d
#ff200d
#ff200d
#ff200d
#ff200d
#ff200d
#ff200d
#ff200d
#ff200d
#ff200d
#ff200d
#ff200d
#ff200d
#ff200d
#ff200d
#ff200d
#ff200d
#fef9f6
#fef9f6
#fef9f6
#fef9f6
#fef9f6
#fef9f6
#fef9f6
#fef9f6
#fef9f6
#fef9f6
#fef9f6
#fef9f6
#fef9f6
#fef9f6
#fef9f6
#fef9f6
#fef9f6
#fef9f6
#fef9f6
#fef9f6
#fef9f6
#fef9f6
#fef9f6
#fef9f6
#fef9f6
#fef9f6
#fef9f6
#fef9f6
#fef9f6
#fef9f6
#fef9f6
#fef9f6
#fef9f6
#fef9f6
#fef9f6
#fef9f6
#fef9f6
#fef9f6
#fef9f6
#fef9f6
#fef9f6
#fef9f6
#fef9f6
#fef9f6
#fef9f6
#fef9f6
#fef9f6
#fef9f6
#fef9f6
#fef9f6
#fef9f6
#fef9f6
#fef9f6
#fef9f6
#fef9f6
#fef9f6
#ff200d
#ff200d
#ff200d
#ff200d
#ff200d
#ff200d
#ff200d
#ff200d
#ff200d
#ff200d
#ff200d
#ff200d
#ff200d
#ff200d
#ff200d
#ff200d
#ff200d
#ff200d
#ff200d
#ff200d
#ff200d
#ff200d
#ff200d
#ff200d
#fef9f6
#fef9f6
#fef9f6
#fef9f6
#fef9f6
#fef9f6
#fef9f6
#fef9f6
#fef9f6
#fef9f6
#fef9f6
#fef9f6
#fef9f6
#fef9f6
#fef9f6
#fef9f6
#fef9f6
#fef9f6
#fef9f6
#fef9f6
#fef9f6
#fef9f6
#fef9f6
#fef9f6
#fef9f6
#fef9f6
#fef9f6
#fef9f6
#fef9f6
#fef9f6
#fef9f6
#fef9f6
#fef9f6
#fef9f6
#fef9f6
#fef9f6
#fef9f6
#fef9f6
#fef9f6
#fef9f6
#fef9f6
#fef9f6
#fef9f6
#fef9f6
#fef9f6
#fef9f6
#fef9f6
#fef9f6
#fef9f6
#fef9f6
#fef9f6
#fef9f6
#fef9f6
#fef9f6
#fef9f6
#ff200d
#ff200d
#ff200d
#ff200d
#ff200d
#ff200d
#ff200d
#ff200d
#ff200d
#ff200d
#ff200d
#ff200d
#ff200d
#ff200d
#ff200d
#ff200d
#ff200d
#ff200d
#ff200d
#ff200d
#ff200d
#ff200d
#ff200d
#ff200d
#ff200d
#ff200d
#fef9f6
#fef9f6
#fef9f6
#fef9f6
#fef9f6
#fef9f6
#fef9f6
#fef9f6
#fef9f6
#fef9f6
#fef9f6
#fef9f6
#fef9f6
#fef9f6
#fef9f6
#fef9f6
#fef9f6
#fef9f6
#fef9f6
#fef9f6
#fef9f6
#fef9f6
#fef9f6
#fef9f6
#fef9f6
#fef9f6
#fef9f6
#fef9f6
#fef9f6
#fef9f6
#fef9f6
#fef9f6
#fef9f6
#fef9f6
#fef9f6
#fef9f6
#fef9f6
#fef9f6
#fef9f6
#fef9f6
#fef9f6
#fef9f6
#fef9f6
#fef9f6
#fef9f6
#fef9f6
#fef9f6
#fef9f6
#fef9f6
#fef9f6
#fef9f6
#fef9f6
#fef9f6
#fef9f6
#ff200d
#ff200d
#ff200d
#ff200d
#ff200d
#ff200d
#ff200d
#ff200d
#ff200d
#ff200d
#fef9f6
#fef9f6
#fef9f6
#fef9f6
#fef9f6
#fef9f6
#ff200d
#ff200d
#ff200d
#ff200d
#ff200d
#ff200d
#ff200d
#ff200d
#ff200d
#ff200d
#fef9f6
#fef9f6
#fef9f6
#fef9f6
#fef9f6
#fef9f6
#fef9f6
#fef9f6
#fef9f6
#fef9f6
#fef9f6
#fef9f6
#fef9f6
#fef9f6
#fef9f6
#fef9f6
#fef9f6
#fef9f6
#fef9f6
#fef9f6
#fef9f6
#fef9f6
#fef9f6
#fef9f6
#fef9f6
#fef9f6
#fef9f6
#fef9f6
#fef9f6
#fef9f6
#fef9f6
#fef9f6
#fef9f6
#fef9f6
#fef9f6
#fef9f6
#fef9f6
#fef9f6
#fef9f6
#fef9f6
#fef9f6
#fef9f6
#fef9f6
#fef9f6
#fef9f6
#fef9f6
#fef9f6
#fef9f6
#fef9f6
#fef9f6
#fef9f6
#fef9f6
#fef9f6
#ff200d
#ff200d
#ff200d
#ff200d
#ff200d
#ff200d
#ff200d
#ff200d
#ff200d
#ff200d
#fef9f6
#fef9f6
#fef9f6
#fef9f6
#fef9f6
#fef9f6
#fef9f6
#fef9f6
#ff200d
#ff200d
#ff200d
#ff200d
#ff200d
#ff200d
#ff200d
#ff200d
#ff200d
#ff200d
#fef9f6
#fef9f6
#fef9f6
#fef9f6
#fef9f6
#fef9f6
#fef9f6
#fef9f6
#fef9f6
#fef9f6
#fef9f6
#fef9f6
#fef9f6
#fef9f6
#fef9f6
#fef9f6
#fef9f6
#fef9f6
#fef9f6
#fef9f6
#fef9f6
#fef9f6
#fef9f6
#fef9f6
#fef9f6
#fef9f6
#fef9f6
#fef9f6
#fef9f6
#fef9f6
#fef9f6
#fef9f6
#fef9f6
#fef9f6
#fef9f6
#fef9f6
#fef9f6
#fef9f6
#fef9f6
#fef9f6
#fef9f6
#fef9f6
#fef9f6
#fef9f6
#fef9f6
#fef9f6
#fef9f6
#fef9f6
#fef9f6
#fef9f6
#ff200d
#fef9f6
#ff200d
#ff200d
#ff200d
#ff200d
#ff200d
#ff200d
#ff200d
#ff200d
#ff200d
#fef9f6
#fef9f6
#fef9f6
#fef9f6
#fef9f6
#fef9f6
#fef9f6
#fef9f6
#fef9f6
#fef9f6
#ff200d
#ff200d
#ff200d
#ff200d
#ff200d
#ff200d
#ff200d
#ff200d
#ff200d
#fef9f6
#fef9f6
#fef9f6
#fef9f6
#fef9f6
#fef9f6
#fef9f6
#fef9f6
#fef9f6
#fef9f6
#fef9f6
#fef9f6
#fef9f6
#fef9f6
#fef9f6
#fef9f6
#fef9f6
#fef9f6
#fef9f6
#fef9f6
#fef9f6
#fef9f6
#fef9f6
#fef9f6
#fef9f6
#fef9f6
#fef9f6
#fef9f6
#fef9f6
#fef9f6
#fef9f6
#fef9f6
#fef9f6
#fef9f6
#fef9f6
#fef9f6
#fef9f6
#fef9f6
#fef9f6
#fef9f6
#fef9f6
#fef9f6
#fef9f6
#fef9f6
#fef9f6
#fef9f6
#fef9f6
#fef9f6
#fef9f6
#fef9f6
#ff200d
#ff200d
#ff200d
#ff200d
#ff200d
#ff200d
#ff200d
#ff200d
#ff200d
#ff200d
#ff200d
#fef9f6
#fef9f6
#fef9f6
#fef9f6
#fef9f6
#fef9f6
#fef9f6
#fef9f6
#fef9f6
#fef9f6
#ff200d
#ff200d
#ff200d
#ff200d
#ff200d
#ff200d
#ff200d
#ff200d
#ff200d
#ff200d
#fef9f6
#fef9f6
#fef9f6
#fef9f6
#fef9f6
#fef9f6
#fef9f6
#fef9f6
#fef9f6
#fef9f6
#fef9f6
#fef9f6
#fef9f6
#fef9f6
#fef9f6
#fef9f6
#fef9f6
#fef9f6
#fef9f6
#fef9f6
#fef9f6
#fef9f6
#fef9f6
#fef9f6
#fef9f6
#fef9f6
#fef9f6
#fef9f6
#fef9f6
#fef9f6
#fef9f6
#fef9f6
#fef9f6
#fef9f6
#fef9f6
#fef9f6
#fef9f6
#fef9f6
#fef9f6
#fef9f6
#fef9f6
#fef9f6
#fef9f6
#fef9f6
#fef9f6
#fef9f6
#fef9f6
#fef9f6
#fef9f6
#ff200d
#ff200d
#ff200d
#ff200d
#ff200d
#ff200d
#ff200d
#ff200d
#ff200d
#ff200d
#fef9f6
#fef9f6
#fef9f6
#fef9f6
#fef9f6
#fef9f6
#fef9f6
#fef9f6
#fef9f6
#fef9f6
#fef9f6
#fef9f6
#ff200d
#ff200d
#ff200d
#ff200d
#ff200d
#ff200d
#ff200d
#ff200d
#ff200d
#fef9f6
#fef9f6
#fef9f6
#fef9f6
#fef9f6
#fef9f6
#fef9f6
#fef9f6
#fef9f6
#fef9f6
#fef9f6
#fef9f6
#fef9f6
#fef9f6
#fef9f6
#fef9f6
#fef9f6
#fef9f6
#fef9f6
#fef9f6
#fef9f6
#fef9f6
#fef9f6
#fef9f6
#fef9f6
#fef9f6
#fef9f6
#fef9f6
#fef9f6
#fef9f6
#fef9f6
#fef9f6
#fef9f6
#fef9f6
#fef9f6
#fef9f6
#fef9f6
#fef9f6
#fef9f6
#fef9f6
#fef9f6
#fef9f6
#fef9f6
#fef9f6
#fef9f6
#fef9f6
#fef9f6
#fef9f6
#ff200d
#ff200d
#ff200d
#ff200d
#ff200d
#ff200d
#ff200d
#ff200d
#ff200d
#ff200d
#ff200d
#fef9f6
#fef9f6
#fef9f6
#fef9f6
#fef9f6
#fef9f6
#fef9f6
#fef9f6
#fef9f6
#fef9f6
#fef9f6
#fef9f6
#ff200d
#ff200d
#ff200d
#ff200d
#ff200d
#ff200d
#ff200d
#ff200d
#ff200d
#fef9f6
#fef9f6
#fef9f6
#fef9f6
#fef9f6
#fef9f6
#fef9f6
#fef9f6
#fef9f6
#fef9f6
#fef9f6
#fef9f6
#fef9f6
#fef9f6
#fef9f6
#fef9f6
#fef9f6
#fef9f6
#fef9f6
#fef9f6
#fef9f6
#fef9f6
#fef9f6
#fef9f6
#fef9f6
#fef9f6
#fef9f6
#fef9f6
#fef9f6
#fef9f6
#fef9f6
#fef9f6
#fef9f6
#fef9f6
#fef9f6
#fef9f6
#fef9f6
#fef9f6
#fef9f6
#fef9f6
#fef9f6
#fef9f6
#fef9f6
#fef9f6
#fef9f6
#fef9f6
#fef9f6
#fef9f6
#ff200d
#ff200d
#ff200d
#ff200d
#ff200d
#ff200d
#ff200d
#ff200d
#ff200d
#ff200d
#ff200d
#fef9f6
#fef9f6
#fef9f6
#fef9f6
#fef9f6
#fef9f6
#fef9f6
#fef9f6
#fef9f6
#fef9f6
#fef9f6
#fef9f6
#ff200d
#ff200d
#ff200d
#ff200d
#ff200d
#ff200d
#ff200d
#ff200d
#ff200d
#fef9f6
#fef9f6
#fef9f6
#fef9f6
#fef9f6
#fef9f6
#fef9f6
#fef9f6
#fef9f6
#fef9f6
#fef9f6
#fef9f6
#fef9f6
#fef9f6
#fef9f6
#fef9f6
#fef9f6
#fef9f6
#fef9f6
#fef9f6
#fef9f6
#fef9f6
#fef9f6
#fef9f6
#fef9f6
#fef9f6
#fef9f6
#fef9f6
#fef9f6
#fef9f6
#fef9f6
#fef9f6
#fef9f6
#fef9f6
#fef9f6
#fef9f6
#fef9f6
#fef9f6
#fef9f6
#fef9f6
#fef9f6
#fef9f6
#fef9f6
#fef9f6
#fef9f6
#fef9f6
#fef9f6
#fef9f6
#ff200d
#ff200d
#ff200d
#ff200d
#ff200d
#ff200d
#ff200d
#ff200d
#ff200d
#ff200d
#ff200d
#fef9f6
#fef9f6
#fef9f6
#fef9f6
#fef9f6
#fef9f6
#fef9f6
#fef9f6
#fef9f6
#fef9f6
#fef9f6
#fef9f6
#ff200d
#ff200d
#ff200d
#ff200d
#ff200d
#ff200d
#ff200d
#ff200d
#ff200d
#fef9f6
#fef9f6
#fef9f6
#fef9f6
#fef9f6
#fef9f6
#fef9f6
#fef9f6
#fef9f6
#fef9f6
#fef9f6
#fef9f6
#fef9f6
#fef9f6
#fef9f6
#fef9f6
#fef9f6
#fef9f6
#fef9f6
#fef9f6
#fef9f6
#fef9f6
#fef9f6
#fef9f6
#fef9f6
#fef9f6
#fef9f6
#fef9f6
#fef9f6
#fef9f6
#fef9f6
#fef9f6
#fef9f6
#fef9f6
#fef9f6
#fef9f6
#fef9f6
#fef9f6
#fef9f6
#fef9f6
#fef9f6
#fef9f6
#fef9f6
#fef9f6
#fef9f6
#fef9f6
#fef9f6
#fef9f6
#ff200d
#ff200d
#ff200d
#ff200d
#fef9f6
#ff200d
#ff200d
#ff200d
#ff200d
#ff200d
#ff200d
#fef9f6
#fef9f6
#fef9f6
#fef9f6
#fef9f6
#fef9f6
#fef9f6
#fef9f6
#fef9f6
#fef9f6
#fef9f6
#fef9f6
#ff200d
#ff200d
#ff200d
#ff200d
#ff200d
#ff200d
#ff200d
#ff200d
#ff200d
#fef9f6
#fef9f6
#fef9f6
#fef9f6
#fef9f6
#fef9f6
#fef9f6
#fef9f6
#fef9f6
#fef9f6
#fef9f6
#fef9f6
#fef9f6
#fef9f6
#fef9f6
#fef9f6
#fef9f6
#fef9f6
#fef9f6
#fef9f6
#fef9f6
#fef9f6
#fef9f6
#fef9f6
#fef9f6
#fef9f6
#fef9f6
#fef9f6
#fef9f6
#fef9f6
#fef9f6
#fef9f6
#fef9f6
#fef9f6
#fef9f6
#fef9f6
#fef9f6
#fef9f6
#fef9f6
#fef9f6
#fef9f6
#fef9f6
#fef9f6
#fef9f6
#fef9f6
#fef9f6
#fef9f6
#fef9f6
#ff200d
#ff200d
#ff200d
#fef9f6
#fef9f6
#ff200d
#ff200d
#ff200d
#ff200d
#ff200d
#ff200d
#fef9f6
#fef9f6
#ff200d
#fef9f6
#fef9f6
#fef9f6
#fef9f6
#fef9f6
#fef9f6
#fef9f6
#fef9f6
#fef9f6
#ff200d
#ff200d
#ff200d
#ff200d
#ff200d
#ff200d
#ff200d
#ff200d
#ff200d
#fef9f6
#fef9f6
#fef9f6
#fef9f6
#fef9f6
#fef9f6
#fef9f6
#fef9f6
#fef9f6
#fef9f6
#fef9f6
#fef9f6
#fef9f6
#fef9f6
#fef9f6
#fef9f6
#fef9f6
#fef9f6
#fef9f6
#fef9f6
#fef9f6
#fef9f6
#fef9f6
#fef9f6
#fef9f6
#fef9f6
#fef9f6
#fef9f6
#fef9f6
#fef9f6
#fef9f6
#fef9f6
#fef9f6
#fef9f6
#fef9f6
#fef9f6
#fef9f6
#fef9f6
#fef9f6
#fef9f6
#fef9f6
#fef9f6
#fef9f6
#fef9f6
#fef9f6
#fef9f6
#fef9f6
#fef9f6
#fef9f6
#ff200d
#ff200d
#fef9f6
#fef9f6
#fef9f6
#ff200d
#ff200d
#ff200d
#ff200d
#ff200d
#fef9f6
#ff200d
#ff200d
#fef9f6
#fef9f6
#fef9f6
#ff200d
#fef9f6
#fef9f6
#fef9f6
#fef9f6
#ff200d
#ff200d
#ff200d
#ff200d
#ff200d
#ff200d
#ff200d
#ff200d
#ff200d
#ff200d
#fef9f6
#fef9f6
#fef9f6
#fef9f6
#fef9f6
#fef9f6
#fef9f6
#fef9f6
#fef9f6
#fef9f6
#fef9f6
#fef9f6
#fef9f6
#fef9f6
#fef9f6
#fef9f6
#fef9f6
#fef9f6
#fef9f6
#fef9f6
#fef9f6
#fef9f6
#fef9f6
#fef9f6
#fef9f6
#fef9f6
#fef9f6
#fef9f6
#fef9f6
#fef9f6
#fef9f6
#fef9f6
#fef9f6
#fef9f6
#fef9f6
#fef9f6
#fef9f6
#fef9f6
#fef9f6
#fef9f6
#fef9f6
#fef9f6
#fef9f6
#fef9f6
#fef9f6
#fef9f6
#fef9f6
#fef9f6
#fef9f6
#ff200d
#ff200d
#fef9f6
#fef9f6
#fef9f6
#ff200d
#ff200d
#ff200d
#ff200d
#ff200d
#fef9f6
#ff200d
#ff200d
#fef9f6
#fef9f6
#fef9f6
#ff200d
#ff200d
#fef9f6
#fef9f6
#fef9f6
#ff200d
#ff200d
#ff200d
#ff200d
#ff200d
#ff200d
#ff200d
#ff200d
#ff200d
#fef9f6
#fef9f6
#fef9f6
#fef9f6
#fef9f6
#fef9f6
#fef9f6
#fef9f6
#fef9f6
#fef9f6
#fef9f6
#fef9f6
#fef9f6
#fef9f6
#fef9f6
#fef9f6
#fef9f6
#fef9f6
#fef9f6
#fef9f6
#fef9f6
#fef9f6
#fef9f6
#fef9f6
#fef9f6
#fef9f6
#fef9f6
#fef9f6
#fef9f6
#fef9f6
#fef9f6
#fef9f6
#fef9f6
#fef9f6
#fef9f6
#fef9f6
#fef9f6
#fef9f6
#fef9f6
#fef9f6
#fef9f6
#fef9f6
#fef9f6
#fef9f6
#fef9f6
#fef9f6
#fef9f6
#fef9f6
#fef9f6
#fef9f6
#ff200d
#ff200d
#fef9f6
#fef9f6
#fef9f6
#fef9f6
#ff200d
#ff200d
#ff200d
#fef9f6
#fef9f6
#ff200d
#ff200d
#ff200d
#fef9f6
#fef9f6
#ff200d
#ff200d
#fef9f6
#fef9f6
#ff200d
#ff200d
#ff200d
#ff200d
#ff200d
#ff200d
#ff200d
#ff200d
#ff200d
#ff200d
#fef9f6
#fef9f6
#fef9f6
#fef9f6
#fef9f6
#fef9f6
#fef9f6
#fef9f6
#fef9f6
#fef9f6
#fef9f6
#fef9f6
#fef9f6
#fef9f6
#fef9f6
#fef9f6
#fef9f6
#fef9f6
#fef9f6
#fef9f6
#fef9f6
#fef9f6
#fef9f6
#fef9f6
#fef9f6
#fef9f6
#fef9f6
#fef9f6
#fef9f6
#fef9f6
#fef9f6
#fef9f6
#fef9f6
#fef9f6
#fef9f6
#fef9f6
#fef9f6
#fef9f6
#fef9f6
#fef9f6
#fef9f6
#fef9f6
#fef9f6
#fef9f6
#fef9f6
#fef9f6
#fef9f6
#fef9f6
#fef9f6
#fef9f6
#fef9f6
#ff200d
#fef9f6
#ff200d
#ff200d
#fef9f6
#fef9f6
#ff200d
#ff200d
#fef9f6
#fef9f6
#ff200d
#ff200d
#ff200d
#ff200d
#fef9f6
#fef9f6
#ff200d
#ff200d
#fef9f6
#fef9f6
#ff200d
#ff200d
#ff200d
#ff200d
#ff200d
#ff200d
#ff200d
#ff200d
#ff200d
#fef9f6
#fef9f6
#fef9f6
#fef9f6
#fef9f6
#fef9f6
#fef9f6
#fef9f6
#fef9f6
#fef9f6
#fef9f6
#fef9f6
#fef9f6
#fef9f6
#fef9f6
#fef9f6
#fef9f6
#fef9f6
#fef9f6
#fef9f6
#fef9f6
#fef9f6
#fef9f6
#fef9f6
#fef9f6
#fef9f6
#fef9f6
#fef9f6
#fef9f6
#fef9f6
#fef9f6
#fef9f6
#fef9f6
#fef9f6
#fef9f6
#fef9f6
#fef9f6
#fef9f6
#fef9f6
#fef9f6
#fef9f6
#fef9f6
#fef9f6
#fef9f6
#fef9f6
#fef9f6
#fef9f6
#fef9f6
#fef9f6
#fef9f6
#fef9f6
#ff200d
#fef9f6
#fef9f6
#ff200d
#ff200d
#fef9f6
#fef9f6
#ff200d
#ff200d
#fef9f6
#ff200d
#ff200d
#ff200d
#ff200d
#ff200d
#fef9f6
#ff200d
#ff200d
#ff200d
#fef9f6
#fef9f6
#ff200d
#ff200d
#ff200d
#ff200d
#ff200d
#ff200d
#ff200d
#fef9f6
#fef9f6
#fef9f6
#fef9f6
#fef9f6
#fef9f6
#fef9f6
#fef9f6
#fef9f6
#fef9f6
#fef9f6
#fef9f6
#fef9f6
#fef9f6
#fef9f6
#fef9f6
#fef9f6
#fef9f6
#fef9f6
#fef9f6
#fef9f6
#fef9f6
#fef9f6
#fef9f6
#fef9f6
#fef9f6
#fef9f6
#fef9f6
#fef9f6
#fef9f6
#fef9f6
#fef9f6
#fef9f6
#fef9f6
#fef9f6
#fef9f6
#fef9f6
#fef9f6
#fef9f6
#fef9f6
#fef9f6
#fef9f6
#fef9f6
#fef9f6
#fef9f6
#fef9f6
#fef9f6
#fef9f6
#fef9f6
#fef9f6
#fef9f6
#fef9f6
#fef9f6
#fef9f6
#fef9f6
#ff200d
#ff200d
#ff200d
#fef9f6
#fef9f6
#fef9f6
#fef9f6
#ff200d
#ff200d
#ff200d
#ff200d
#ff200d
#fef9f6
#fef9f6
#ff200d
#ff200d
#ff200d
#fef9f6
#fef9f6
#ff200d
#ff200d
#ff200d
#ff200d
#ff200d
#ff200d
#fef9f6
#fef9f6
#fef9f6
#fef9f6
#fef9f6
#fef9f6
#fef9f6
#fef9f6
#fef9f6
#fef9f6
#fef9f6
#fef9f6
#fef9f6
#fef9f6
#fef9f6
#fef9f6
#fef9f6
#fef9f6
#fef9f6
#fef9f6
#fef9f6
#fef9f6
#fef9f6
#fef9f6
#fef9f6
#fef9f6
#fef9f6
#fef9f6
#fef9f6
#fef9f6
#fef9f6
#fef9f6
#fef9f6
#fef9f6
#fef9f6
#fef9f6
#fef9f6
#fef9f6
#fef9f6
#fef9f6
#fef9f6
#fef9f6
#fef9f6
#fef9f6
#fef9f6
#fef9f6
#fef9f6
#fef9f6
#fef9f6
#fef9f6
#fef9f6
#fef9f6
#fef9f6
#fef9f6
#fef9f6
#ff200d
#ff200d
#ff200d
#ff200d
#fef9f6
#fef9f6
#fef9f6
#fef9f6
#ff200d
#ff200d
#ff200d
#ff200d
#ff200d
#fef9f6
#fef9f6
#ff200d
#ff200d
#ff200d
#fef9f6
#fef9f6
#ff200d
#ff200d
#ff200d
#ff200d
#fef9f6
#fef9f6
#fef9f6
#fef9f6
#fef9f6
#fef9f6
#fef9f6
#fef9f6
#fef9f6
#fef9f6
#fef9f6
#fef9f6
#fef9f6
#fef9f6
#fef9f6
#fef9f6
#fef9f6
#fef9f6
#fef9f6
#fef9f6
#fef9f6
#fef9f6
#fef9f6
#fef9f6
#fef9f6
#fef9f6
#fef9f6
#fef9f6
#fef9f6
#fef9f6
#fef9f6
#fef9f6
#fef9f6
#fef9f6
#fef9f6
#fef9f6
#fef9f6
#fef9f6
#fef9f6
#fef9f6
#fef9f6
#fef9f6
#fef9f6
#fef9f6
#fef9f6
#fef9f6
#fef9f6
#fef9f6
#fef9f6
#fef9f6
#fef9f6
#fef9f6
#ff200d
#ff200d
#ff200d
#ff200d
#ff200d
#ff200d
#ff200d
#ff200d
#ff200d
#ff200d
#fef9f6
#fef9f6
#fef9f6
#ff200d
#ff200d
#ff200d
#ff200d
#ff200d
#ff200d
#fef9f6
#ff200d
#ff200d
#ff200d
#fef9f6
#fef9f6
#ff200d
#ff200d
#ff200d
#fef9f6
#fef9f6
#fef9f6
#fef9f6
#fef9f6
#fef9f6
#fef9f6
#fef9f6
#fef9f6
#fef9f6
#fef9f6
#fef9f6
#fef9f6
#fef9f6
#fef9f6
#fef9f6
#fef9f6
#fef9f6
#fef9f6
#fef9f6
#fef9f6
#fef9f6
#fef9f6
#fef9f6
#fef9f6
#fef9f6
#fef9f6
#fef9f6
#fef9f6
#fef9f6
#fef9f6
#fef9f6
#fef9f6
#fef9f6
#fef9f6
#fef9f6
#fef9f6
#fef9f6
#fef9f6
#fef9f6
#fef9f6
#fef9f6
#fef9f6
#fef9f6
#fef9f6
#fef9f6
#fef9f6
#fef9f6
#fef9f6
#fef9f6
#fef9f6
#fef9f6
#fef9f6
#ff200d
#ff200d
#ff200d
#ff200d
#ff200d
#ff200d
#ff200d
#ff200d
#ff200d
#ff200d
#ff200d
#fef9f6
#fef9f6
#ff200d
#ff200d
#ff200d
#ff200d
#ff200d
#ff200d
#fef9f6
#ff200d
#ff200d
#ff200d
#fef9f6
#fef9f6
#ff200d
#fef9f6
#fef9f6
#fef9f6
#fef9f6
#fef9f6
#fef9f6
#fef9f6
#fef9f6
#fef9f6
#fef9f6
#fef9f6
#fef9f6
#fef9f6
#fef9f6
#fef9f6
#fef9f6
#fef9f6
#fef9f6
#fef9f6
#fef9f6
#fef9f6
#fef9f6
#fef9f6
#fef9f6
#fef9f6
#fef9f6
#fef9f6
#fef9f6
#fef9f6
#fef9f6
#fef9f6
#fef9f6
#fef9f6
#fef9f6
#fef9f6
#fef9f6
#fef9f6
#fef9f6
#fef9f6
#fef9f6
#fef9f6
#fef9f6
#fef9f6
#fef9f6
#fef9f6
#fef9f6
#fef9f6
#fef9f6
#fef9f6
#fef9f6
#fef9f6
#fef9f6
#fef9f6
#fef9f6
#fef9f6
#ff200d
#ff200d
#ff200d
#ff200d
#ff200d
#ff200d
#ff200d
#ff200d
#ff200d
#ff200d
#ff200d
#fef9f6
#fef9f6
#ff200d
#ff200d
#ff200d
#ff200d
#ff200d
#ff200d
#fef9f6
#ff200d
#ff200d
#ff200d
#fef9f6
#fef9f6
#fef9f6
#fef9f6
#fef9f6
#fef9f6
#fef9f6
#fef9f6
#fef9f6
#fef9f6
#fef9f6
#fef9f6
#fef9f6
#fef9f6
#fef9f6
#fef9f6
#fef9f6
#fef9f6
#fef9f6
#fef9f6
#fef9f6
#fef9f6
#fef9f6
#fef9f6
#fef9f6
#fef9f6
#fef9f6
#fef9f6
#fef9f6
#fef9f6
#fef9f6
#fef9f6
#fef9f6
#fef9f6
#fef9f6
#fef9f6
#fef9f6
#fef9f6
#fef9f6
#fef9f6
#fef9f6
#fef9f6
#fef9f6
#fef9f6
#fef9f6
#fef9f6
#fef9f6
#fef9f6
#fef9f6
#fef9f6
#fef9f6
#fef9f6
#fef9f6
#fef9f6
#fef9f6
#fef9f6
#fef9f6
#ff200d
#ff200d
#ff200d
#ff200d
#ff200d
#ff200d
#ff200d
#ff200d
#ff200d
#ff200d
#ff200d
#ff200d
#fef9f6
#ff200d
#ff200d
#ff200d
#ff200d
#ff200d
#ff200d
#ff200d
#fef9f6
#ff200d
#ff200d
#ff200d
#fef9f6
#fef9f6
#fef9f6
#fef9f6
#fef9f6
#fef9f6
#fef9f6
#fef9f6
#fef9f6
#fef9f6
#fef9f6
#fef9f6
#fef9f6
#fef9f6
#fef9f6
#fef9f6
#fef9f6
#fef9f6
#fef9f6
#fef9f6
#fef9f6
#fef9f6
#fef9f6
#fef9f6
#fef9f6
#ff200d
#fef9f6
#fef9f6
#fef9f6
#fef9f6
#fef9f6
#fef9f6
#fef9f6
#fef9f6
#fef9f6
#fef9f6
#fef9f6
#fef9f6
#fef9f6
#fef9f6
#fef9f6
#fef9f6
#fef9f6
#fef9f6
#fef9f6
#fef9f6
#fef9f6
#fef9f6
#fef9f6
#fef9f6
#fef9f6
#fef9f6
#fef9f6
#fef9f6
#fef9f6
#fef9f6
#ff200d
#ff200d
#ff200d
#ff200d
#ff200d
#ff200d
#ff200d
#ff200d
#ff200d
#ff200d
#ff200d
#ff200d
#ff200d
#ff200d
#ff200d
#ff200d
#ff200d
#ff200d
#ff200d
#ff200d
#ff200d
#fef9f6
#ff200d
#ff200d
#ff200d
#fef9f6
#fef9f6
#fef9f6
#fef9f6
#fef9f6
#fef9f6
#fef9f6
#fef9f6
#fef9f6
#fef9f6
#fef9f6
#fef9f6
#fef9f6
#fef9f6
#fef9f6
#fef9f6
#fef9f6
#fef9f6
#fef9f6
#fef9f6
#fef9f6
#fef9f6
#fef9f6
#ff200d
#fef9f6
#fef9f6
#fef9f6
#fef9f6
#fef9f6
#fef9f6
#fef9f6
#fef9f6
#fef9f6
#fef9f6
#fef9f6
#fef9f6
#fef9f6
#fef9f6
#fef9f6
#fef9f6
#fef9f6
#fef9f6
#fef9f6
#fef9f6
#fef9f6
#fef9f6
#fef9f6
#fef9f6
#fef9f6
#fef9f6
#fef9f6
#fef9f6
#fef9f6
#fef9f6
#ff200d
#ff200d
#ff200d
#ff200d
#ff200d
#ff200d
#ff200d
#ff200d
#ff200d
#ff200d
#ff200d
#ff200d
#ff200d
#ff200d
#ff200d
#ff200d
#ff200d
#ff200d
#ff200d
#ff200d
#ff200d
#ff200d
#ff200d
#fef9f6
#ff200d
#ff200d
#fef9f6
#fef9f6
#fef9f6
#fef9f6
#fef9f6
#fef9f6
#fef9f6
#fef9f6
#fef9f6
#fef9f6
#fef9f6
#fef9f6
#fef9f6
#fef9f6
#fef9f6
#fef9f6
#fef9f6
#fef9f6
#fef9f6
#fef9f6
#fef9f6
#ff200d
#ff200d
#ff200d
#ff200d
#fef9f6
#ff200d
#ff200d
#ff200d
#ff200d
#ff200d
#ff200d
#ff200d
#ff200d
#ff200d
#ff200d
#ff200d
#fef9f6
#fef9f6
#fef9f6
#fef9f6
#fef9f6
#fef9f6
#fef9f6
#fef9f6
#fef9f6
#fef9f6
#fef9f6
#fef9f6
#fef9f6
#fef9f6
#fef9f6
#ff200d
#ff200d
#ff200d
#ff200d
#ff200d
#ff200d
#ff200d
#ff200d
#ff200d
#ff200d
#ff200d
#ff200d
#ff200d
#ff200d
#ff200d
#ff200d
#ff200d
#ff200d
#ff200d
#ff200d
#ff200d
#ff200d
#ff200d
#ff200d
#ff200d
#ff200d
#ff200d
#ff200d
#ff200d
#fef9f6
#fef9f6
#fef9f6
#fef9f6
#fef9f6
#fef9f6
#fef9f6
#fef9f6
#fef9f6
#fef9f6
#fef9f6
#fef9f6
#fef9f6
#fef9f6
#fef9f6
#ff200d
#fef9f6
#fef9f6
#fef9f6
#ff200d
#ff200d
#ff200d
#ff200d
#ff200d
#ff200d
#ff200d
#ff200d
#ff200d
#ff200d
#ff200d
#ff200d
#ff200d
#ff200d
#ff200d
#ff200d
#ff200d
#ff200d
#ff200d
#fef9f6
#fef9f6
#fef9f6
#fef9f6
#fef9f6
#fef9f6
#fef9f6
#fef9f6
#fef9f6
#fef9f6
#fef9f6
#ff200d
#ff200d
#ff200d
#ff200d
#ff200d
#ff200d
#ff200d
#ff200d
#ff200d
#ff200d
#ff200d
#ff200d
#ff200d
#fef9f6
#fef9f6
#fef9f6
#fef9f6
#fef9f6
#ff200d
#ff200d
#ff200d
#ff200d
#ff200d
#ff200d
#fef9f6
#ff200d
#ff200d
#ff200d
#ff200d
#ff200d
#ff200d
#fef9f6
#fef9f6
#fef9f6
#fef9f6
#fef9f6
#fef9f6
#fef9f6
#fef9f6
#fef9f6
#fef9f6
#fef9f6
#fef9f6
#fef9f6
#fef9f6
#ff200d
#ff200d
#fef9f6
#fef9f6
#ff200d
#ff200d
#ff200d
#ff200d
#ff200d
#ff200d
#ff200d
#ff200d
#ff200d
#ff200d
#ff200d
#ff200d
#ff200d
#ff200d
#ff200d
#ff200d
#ff200d
#ff200d
#ff200d
#ff200d
#ff200d
#fef9f6
#fef9f6
#fef9f6
#fef9f6
#fef9f6
#fef9f6
#fef9f6
#fef9f6
#fef9f6
#ff200d
#ff200d
#ff200d
#ff200d
#ff200d
#ff200d
#ff200d
#ff200d
#ff200d
#ff200d
#ff200d
#ff200d
#fef9f6
#fef9f6
#fef9f6
#fef9f6
#ff200d
#ff200d
#ff200d
#ff200d
#ff200d
#ff200d
#ff200d
#ff200d
#ff200d
#fef9f6
#fef9f6
#fef9f6
#ff200d
#ff200d
#ff200d
#ff200d
#ff200d
#fef9f6
#fef9f6
#fef9f6
#fef9f6
#fef9f6
#fef9f6
#fef9f6
#fef9f6
#fef9f6
#fef9f6
#fef9f6
#fef9f6
#ff200d
#ff200d
#ff200d
#ff200d
#ff200d
#ff200d
#ff200d
#fef9f6
#fef9f6
#fef9f6
#fef9f6
#ff200d
#ff200d
#ff200d
#ff200d
#ff200d
#ff200d
#ff200d
#ff200d
#ff200d
#ff200d
#ff200d
#ff200d
#ff200d
#ff200d
#ff200d
#ff200d
#ff200d
#fef9f6
#fef9f6
#fef9f6
#fef9f6
#fef9f6
#ff200d
#ff200d
#ff200d
#ff200d
#ff200d
#ff200d
#ff200d
#ff200d
#ff200d
#ff200d
#ff200d
#ff200d
#fef9f6
#fef9f6
#fef9f6
#fef9f6
#ff200d
#ff200d
#ff200d
#ff200d
#ff200d
#ff200d
#ff200d
#ff200d
#ff200d
#ff200d
#ff200d
#ff200d
#fef9f6
#fef9f6
#ff200d
#ff200d
#ff200d
#ff200d
#ff200d
#fef9f6
#fef9f6
#fef9f6
#fef9f6
#fef9f6
#fef9f6
#fef9f6
#fef9f6
#fef9f6
#fef9f6
#fef9f6
#ff200d
#ff200d
#ff200d
#ff200d
#ff200d
#fef9f6
#fef9f6
#fef9f6
#ff200d
#ff200d
#ff200d
#ff200d
#ff200d
#ff200d
#ff200d
#ff200d
#ff200d
#ff200d
#ff200d
#ff200d
#ff200d
#ff200d
#ff200d
#ff200d
#fef9f6
#fef9f6
#fef9f6
#fef9f6
#fef9f6
#fef9f6
#fef9f6
#fef9f6
#fef9f6
#fef9f6
#fef9f6
#fef9f6
#fef9f6
#fef9f6
#fef9f6
#ff200d
#ff200d
#ff200d
#ff200d
#ff200d
#ff200d
#ff200d
#fef9f6
#fef9f6
#fef9f6
#fef9f6
#fef9f6
#fef9f6
#ff200d
#ff200d
#ff200d
#ff200d
#ff200d
#ff200d
#ff200d
#ff200d
#ff200d
#ff200d
#ff200d
#fef9f6
#fef9f6
#ff200d
#ff200d
#ff200d
#ff200d
#fef9f6
#fef9f6
#fef9f6
#fef9f6
#fef9f6
#fef9f6
#fef9f6
#fef9f6
#fef9f6
#fef9f6
#fef9f6
#ff200d
#ff200d
#ff200d
#fef9f6
#fef9f6
#fef9f6
#ff200d
#ff200d
#ff200d
#ff200d
#ff200d
#fef9f6
#fef9f6
#fef9f6
#fef9f6
#ff200d
#ff200d
#ff200d
#ff200d
#ff200d
#fef9f6
#fef9f6
#fef9f6
#fef9f6
#fef9f6
#fef9f6
#fef9f6
#fef9f6
#fef9f6
#fef9f6
#fef9f6
#fef9f6
#fef9f6
#fef9f6
#fef9f6
#fef9f6
#fef9f6
#fef9f6
#fef9f6
#fef9f6
#ff200d
#ff200d
#ff200d
#ff200d
#ff200d
#ff200d
#ff200d
#fef9f6
#fef9f6
#fef9f6
#fef9f6
#fef9f6
#ff200d
#ff200d
#ff200d
#ff200d
#ff200d
#ff200d
#ff200d
#ff200d
#ff200d
#ff200d
#ff200d
#ff200d
#ff200d
#ff200d
#ff200d
#ff200d
#ff200d
#fef9f6
#fef9f6
#fef9f6
#fef9f6
#fef9f6
#fef9f6
#fef9f6
#fef9f6
#fef9f6
#fef9f6
#ff200d
#ff200d
#fef9f6
#fef9f6
#fef9f6
#ff200d
#ff200d
#ff200d
#ff200d
#ff200d
#fef9f6
#fef9f6
#fef9f6
#fef9f6
#fef9f6
#fef9f6
#fef9f6
#fef9f6
#fef9f6
#fef9f6
#fef9f6
#fef9f6
#fef9f6
#fef9f6
#fef9f6
#fef9f6
#fef9f6
#fef9f6
#fef9f6
#fef9f6
#fef9f6
#fef9f6
#fef9f6
#fef9f6
#fef9f6
#fef9f6
#fef9f6
#fef9f6
#fef9f6
#fef9f6
#fef9f6
#ff200d
#ff200d
#ff200d
#ff200d
#ff200d
#fef9f6
#fef9f6
#fef9f6
#fef9f6
#fef9f6
#ff200d
#ff200d
#ff200d
#ff200d
#ff200d
#ff200d
#ff200d
#fef9f6
#fef9f6
#fef9f6
#fef9f6
#fef9f6
#fef9f6
#fef9f6
#ff200d
#ff200d
#ff200d
#ff200d
#ff200d
#ff200d
#fef9f6
#fef9f6
#fef9f6
#fef9f6
#fef9f6
#fef9f6
#fef9f6
#fef9f6
#ff200d
#ff200d
#fef9f6
#fef9f6
#fef9f6
#ff200d
#ff200d
#ff200d
#ff200d
#fef9f6
#fef9f6
#fef9f6
#fef9f6
#fef9f6
#fef9f6
#fef9f6
#fef9f6
#fef9f6
#fef9f6
#fef9f6
#fef9f6
#fef9f6
#fef9f6
#fef9f6
#fef9f6
#fef9f6
#fef9f6
#fef9f6
#fef9f6
#fef9f6
#fef9f6
#fef9f6
#fef9f6
#fef9f6
#fef9f6
#fef9f6
#fef9f6
#fef9f6
#fef9f6
#ff200d
#fef9f6
#fef9f6
#ff200d
#ff200d
#ff200d
#fef9f6
#fef9f6
#fef9f6
#fef9f6
#fef9f6
#fef9f6
#ff200d
#ff200d
#ff200d
#ff200d
#ff200d
#ff200d
#fef9f6
#fef9f6
#fef9f6
#fef9f6
#fef9f6
#fef9f6
#fef9f6
#fef9f6
#fef9f6
#fef9f6
#ff200d
#ff200d
#ff200d
#ff200d
#ff200d
#ff200d
#fef9f6
#ff200d
#fef9f6
#fef9f6
#fef9f6
#fef9f6
#fef9f6
#ff200d
#fef9f6
#fef9f6
#ff200d
#ff200d
#ff200d
#ff200d
#ff200d
#fef9f6
#fef9f6
#fef9f6
#fef9f6
#fef9f6
#fef9f6
#fef9f6
#fef9f6
#fef9f6
#fef9f6
#fef9f6
#fef9f6
#fef9f6
#fef9f6
#fef9f6
#fef9f6
#fef9f6
#fef9f6
#fef9f6
#fef9f6
#fef9f6
#fef9f6
#fef9f6
#fef9f6
#fef9f6
#fef9f6
#fef9f6
#fef9f6
#fef9f6
#fef9f6
#ff200d
#ff200d
#fef9f6
#fef9f6
#ff200d
#ff200d
#fef9f6
#fef9f6
#fef9f6
#ff200d
#ff200d
#fef9f6
#fef9f6
#ff200d
#ff200d
#ff200d
#ff200d
#ff200d
#ff200d
#ff200d
#ff200d
#ff200d
#fef9f6
#fef9f6
#fef9f6
#fef9f6
#fef9f6
#fef9f6
#ff200d
#ff200d
#ff200d
#ff200d
#ff200d
#ff200d
#ff200d
#ff200d
#ff200d
#fef9f6
#fef9f6
#fef9f6
#fef9f6
#fef9f6
#fef9f6
#fef9f6
#ff200d
#ff200d
#ff200d
#ff200d
#ff200d
#fef9f6
#fef9f6
#fef9f6
#fef9f6
#fef9f6
#fef9f6
#fef9f6
#fef9f6
#fef9f6
#fef9f6
#fef9f6
#fef9f6
#fef9f6
#fef9f6
#fef9f6
#fef9f6
#fef9f6
#fef9f6
#fef9f6
#fef9f6
#fef9f6
#fef9f6
#fef9f6
#fef9f6
#fef9f6
#fef9f6
#fef9f6
#fef9f6
#fef9f6
#fef9f6
#ff200d
#ff200d
#ff200d
#fef9f6
#fef9f6
#fef9f6
#fef9f6
#fef9f6
#ff200d
#ff200d
#ff200d
#fef9f6
#fef9f6
#fef9f6
#fef9f6
#fef9f6
#fef9f6
#fef9f6
#fef9f6
#ff200d
#ff200d
#ff200d
#ff200d
#fef9f6
#fef9f6
#fef9f6
#fef9f6
#fef9f6
#fef9f6
#ff200d
#ff200d
#ff200d
#ff200d
#ff200d
#ff200d
#ff200d
#ff200d
#ff200d
#fef9f6
#fef9f6
#fef9f6
#fef9f6
#fef9f6
#fef9f6
#ff200d
#ff200d
#ff200d
#ff200d
#ff200d
#ff200d
#fef9f6
#fef9f6
#fef9f6
#fef9f6
#fef9f6
#fef9f6
#fef9f6
#fef9f6
#fef9f6
#fef9f6
#fef9f6
#fef9f6
#fef9f6
#fef9f6
#fef9f6
#fef9f6
#fef9f6
#fef9f6
#fef9f6
#fef9f6
#fef9f6
#fef9f6
#fef9f6
#fef9f6
#fef9f6
#fef9f6
#fef9f6
#fef9f6
#fef9f6
#fef9f6
#ff200d
#ff200d
#ff200d
#fef9f6
#fef9f6
#fef9f6
#fef9f6
#ff200d
#ff200d
#ff200d
#ff200d
#fef9f6
#fef9f6
#fef9f6
#fef9f6
#fef9f6
#ff200d
#fef9f6
#fef9f6
#fef9f6
#ff200d
#ff200d
#fef9f6
#fef9f6
#fef9f6
#ff200d
#fef9f6
#fef9f6
#fef9f6
#fef9f6
#fef9f6
#fef9f6
#fef9f6
#ff200d
#ff200d
#ff200d
#ff200d
#fef9f6
#fef9f6
#fef9f6
#fef9f6
#fef9f6
#fef9f6
#ff200d
#ff200d
#ff200d
#ff200d
#ff200d
#ff200d
#fef9f6
#fef9f6
#fef9f6
#fef9f6
#fef9f6
#fef9f6
#fef9f6
#fef9f6
#fef9f6
#fef9f6
#fef9f6
#fef9f6
#fef9f6
#fef9f6
#fef9f6
#fef9f6
#fef9f6
#fef9f6
#fef9f6
#fef9f6
#fef9f6
#fef9f6
#fef9f6
#fef9f6
#fef9f6
#fef9f6
#fef9f6
#fef9f6
#fef9f6
#fef9f6
#ff200d
#ff200d
#ff200d
#ff200d
#fef9f6
#fef9f6
#fef9f6
#ff200d
#ff200d
#ff200d
#ff200d
#ff200d
#fef9f6
#fef9f6
#ff200d
#ff200d
#ff200d
#ff200d
#fef9f6
#fef9f6
#fef9f6
#fef9f6
#ff200d
#fef9f6
#fef9f6
#fef9f6
#fef9f6
#ff200d
#ff200d
#ff200d
#fef9f6
#fef9f6
#fef9f6
#fef9f6
#fef9f6
#ff200d
#ff200d
#ff200d
#fef9f6
#fef9f6
#fef9f6
#fef9f6
#fef9f6
#ff200d
#ff200d
#ff200d
#ff200d
#ff200d
#ff200d
#fef9f6
#fef9f6
#fef9f6
#fef9f6
#fef9f6
#fef9f6
#fef9f6
#fef9f6
#fef9f6
#fef9f6
#fef9f6
#fef9f6
#fef9f6
#fef9f6
#fef9f6
#fef9f6
#fef9f6
#fef9f6
#fef9f6
#fef9f6
#fef9f6
#fef9f6
#fef9f6
#fef9f6
#fef9f6
#fef9f6
#fef9f6
#fef9f6
#fef9f6
#fef9f6
#ff200d
#ff200d
#ff200d
#ff200d
#ff200d
#fef9f6
#ff200d
#ff200d
#ff200d
#ff200d
#ff200d
#ff200d
#ff200d
#ff200d
#ff200d
#ff200d
#ff200d
#ff200d
#fef9f6
#fef9f6
#fef9f6
#fef9f6
#fef9f6
#ff200d
#ff200d
#ff200d
#fef9f6
#fef9f6
#fef9f6
#ff200d
#ff200d
#ff200d
#ff200d
#ff200d
#fef9f6
#fef9f6
#fef9f6
#ff200d
#fef9f6
#fef9f6
#fef9f6
#fef9f6
#fef9f6
#ff200d
#ff200d
#ff200d
#ff200d
#ff200d
#ff200d
#fef9f6
#fef9f6
#fef9f6
#fef9f6
#fef9f6
#fef9f6
#fef9f6
#fef9f6
#fef9f6
#fef9f6
#fef9f6
#fef9f6
#fef9f6
#fef9f6
#fef9f6
#fef9f6
#fef9f6
#fef9f6
#fef9f6
#fef9f6
#fef9f6
#fef9f6
#fef9f6
#fef9f6
#fef9f6
#fef9f6
#fef9f6
#fef9f6
#fef9f6
#fef9f6
#fef9f6
#ff200d
#ff200d
#ff200d
#ff200d
#ff200d
#ff200d
#ff200d
#ff200d
#ff200d
#ff200d
#ff200d
#ff200d
#ff200d
#ff200d
#ff200d
#ff200d
#ff200d
#fef9f6
#fef9f6
#fef9f6
#fef9f6
#fef9f6
#fef9f6
#ff200d
#ff200d
#ff200d
#fef9f6
#fef9f6
#fef9f6
#fef9f6
#ff200d
#ff200d
#ff200d
#ff200d
#ff200d
#fef9f6
#fef9f6
#fef9f6
#fef9f6
#fef9f6
#fef9f6
#fef9f6
#ff200d
#ff200d
#ff200d
#ff200d
#ff200d
#ff200d
#ff200d
#fef9f6
#fef9f6
#fef9f6
#fef9f6
#fef9f6
#fef9f6
#fef9f6
#fef9f6
#fef9f6
#fef9f6
#fef9f6
#fef9f6
#fef9f6
#fef9f6
#fef9f6
#fef9f6
#fef9f6
#fef9f6
#fef9f6
#fef9f6
#fef9f6
#fef9f6
#fef9f6
#fef9f6
#fef9f6
#fef9f6
#fef9f6
#fef9f6
#fef9f6
#fef9f6
#ff200d
#ff200d
#ff200d
#ff200d
#ff200d
#ff200d
#ff200d
#ff200d
#ff200d
#ff200d
#ff200d
#ff200d
#ff200d
#ff200d
#ff200d
#ff200d
#ff200d
#fef9f6
#fef9f6
#fef9f6
#fef9f6
#fef9f6
#fef9f6
#fef9f6
#ff200d
#ff200d
#ff200d
#fef9f6
#fef9f6
#fef9f6
#fef9f6
#fef9f6
#ff200d
#ff200d
#ff200d
#ff200d
#fef9f6
#fef9f6
#fef9f6
#fef9f6
#fef9f6
#fef9f6
#fef9f6
#ff200d
#ff200d
#ff200d
#ff200d
#ff200d
#ff200d
#fef9f6
#fef9f6
#fef9f6
#fef9f6
#fef9f6
#fef9f6
#fef9f6
#fef9f6
#fef9f6
#fef9f6
#fef9f6
#fef9f6
#fef9f6
#fef9f6
#fef9f6
#fef9f6
#fef9f6
#fef9f6
#fef9f6
#fef9f6
#fef9f6
#fef9f6
#fef9f6
#fef9f6
#fef9f6
#fef9f6
#fef9f6
#fef9f6
#fef9f6
#fef9f6
#ff200d
#ff200d
#ff200d
#ff200d
#ff200d
#ff200d
#ff200d
#ff200d
#ff200d
#ff200d
#ff200d
#ff200d
#ff200d
#ff200d
#ff200d
#ff200d
#ff200d
#ff200d
#fef9f6
#fef9f6
#fef9f6
#fef9f6
#fef9f6
#fef9f6
#ff200d
#ff200d
#ff200d
#ff200d
#fef9f6
#fef9f6
#fef9f6
#fef9f6
#fef9f6
#fef9f6
#ff200d
#ff200d
#ff200d
#fef9f6
#fef9f6
#fef9f6
#fef9f6
#fef9f6
#fef9f6
#ff200d
#ff200d
#ff200d
#ff200d
#ff200d
#ff200d
#ff200d
#fef9f6
#fef9f6
#fef9f6
#fef9f6
#fef9f6
#fef9f6
#fef9f6
#fef9f6
#fef9f6
#fef9f6
#fef9f6
#fef9f6
#fef9f6
#fef9f6
#fef9f6
#fef9f6
#fef9f6
#fef9f6
#fef9f6
#fef9f6
#fef9f6
#fef9f6
#fef9f6
#fef9f6
#fef9f6
#fef9f6
#fef9f6
#fef9f6
#fef9f6
#fef9f6
#ff200d
#fef9f6
#fef9f6
#ff200d
#ff200d
#ff200d
#ff200d
#ff200d
#ff200d
#ff200d
#ff200d
#ff200d
#ff200d
#ff200d
#ff200d
#ff200d
#ff200d
#fef9f6
#fef9f6
#fef9f6
#fef9f6
#fef9f6
#fef9f6
#fef9f6
#ff200d
#ff200d
#ff200d
#ff200d
#ff200d
#fef9f6
#fef9f6
#fef9f6
#fef9f6
#fef9f6
#ff200d
#ff200d
#ff200d
#ff200d
#fef9f6
#fef9f6
#fef9f6
#fef9f6
#fef9f6
#fef9f6
#ff200d
#ff200d
#ff200d
#ff200d
#ff200d
#fef9f6
#fef9f6
#fef9f6
#fef9f6
#fef9f6
#fef9f6
#fef9f6
#fef9f6
#fef9f6
#fef9f6
#fef9f6
#fef9f6
#fef9f6
#fef9f6
#fef9f6
#fef9f6
#fef9f6
#fef9f6
#fef9f6
#fef9f6
#fef9f6
#fef9f6
#fef9f6
#fef9f6
#fef9f6
#fef9f6
#fef9f6
#fef9f6
#fef9f6
#fef9f6
#fef9f6
#fef9f6
#fef9f6
#ff200d
#ff200d
#ff200d
#ff200d
#ff200d
#ff200d
#ff200d
#ff200d
#ff200d
#ff200d
#ff200d
#ff200d
#ff200d
#ff200d
#ff200d
#fef9f6
#fef9f6
#fef9f6
#fef9f6
#fef9f6
#fef9f6
#fef9f6
#fef9f6
#fef9f6
#ff200d
#ff200d
#fef9f6
#fef9f6
#fef9f6
#fef9f6
#fef9f6
#fef9f6
#ff200d
#ff200d
#ff200d
#ff200d
#ff200d
#ff200d
#ff200d
#ff200d
#ff200d
#fef9f6
#fef9f6
#fef9f6
#ff200d
#ff200d
#ff200d
#fef9f6
#fef9f6
#fef9f6
#fef9f6
#fef9f6
#fef9f6
#fef9f6
#fef9f6
#fef9f6
#fef9f6
#fef9f6
#fef9f6
#fef9f6
#fef9f6
#fef9f6
#fef9f6
#fef9f6
#fef9f6
#fef9f6
#fef9f6
#fef9f6
#fef9f6
#fef9f6
#fef9f6
#fef9f6
#fef9f6
#fef9f6
#fef9f6
#fef9f6
#fef9f6
#fef9f6
#fef9f6
#fef9f6
#ff200d
#ff200d
#ff200d
#ff200d
#ff200d
#ff200d
#ff200d
#ff200d
#ff200d
#ff200d
#ff200d
#ff200d
#ff200d
#ff200d
#fef9f6
#fef9f6
#fef9f6
#fef9f6
#fef9f6
#fef9f6
#fef9f6
#fef9f6
#fef9f6
#ff200d
#fef9f6
#fef9f6
#fef9f6
#fef9f6
#fef9f6
#fef9f6
#fef9f6
#fef9f6
#ff200d
#ff200d
#ff200d
#ff200d
#ff200d
#ff200d
#ff200d
#ff200d
#ff200d
#ff200d
#fef9f6
#fef9f6
#fef9f6
#ff200d
#fef9f6
#fef9f6
#fef9f6
#fef9f6
#fef9f6
#fef9f6
#fef9f6
#fef9f6
#fef9f6
#fef9f6
#fef9f6
#fef9f6
#fef9f6
#fef9f6
#fef9f6
#fef9f6
#fef9f6
#fef9f6
#fef9f6
#fef9f6
#fef9f6
#fef9f6
#fef9f6
#fef9f6
#fef9f6
#fef9f6
#fef9f6
#fef9f6
#fef9f6
#fef9f6
#fef9f6
#fef9f6
#fef9f6
#fef9f6
#ff200d
#ff200d
#ff200d
#ff200d
#ff200d
#ff200d
#ff200d
#ff200d
#ff200d
#ff200d
#ff200d
#ff200d
#ff200d
#ff200d
#fef9f6
#fef9f6
#fef9f6
#fef9f6
#fef9f6
#fef9f6
#fef9f6
#fef9f6
#fef9f6
#fef9f6
#fef9f6
#fef9f6
#fef9f6
#fef9f6
#fef9f6
#fef9f6
#fef9f6
#fef9f6
#fef9f6
#ff200d
#ff200d
#ff200d
#ff200d
#ff200d
#ff200d
#ff200d
#ff200d
#ff200d
#ff200d
#fef9f6
#fef9f6
#fef9f6
#fef9f6
#fef9f6
#fef9f6
#fef9f6
#fef9f6
#fef9f6
#fef9f6
#fef9f6
#fef9f6
#fef9f6
#fef9f6
#fef9f6
#fef9f6
#fef9f6
#fef9f6
#fef9f6
#fef9f6
#fef9f6
#fef9f6
#fef9f6
#fef9f6
#fef9f6
#fef9f6
#fef9f6
#fef9f6
#fef9f6
#fef9f6
#fef9f6
#fef9f6
#fef9f6
#fef9f6
#fef9f6
#fef9f6
#ff200d
#ff200d
#ff200d
#ff200d
#ff200d
#ff200d
#ff200d
#ff200d
#ff200d
#ff200d
#ff200d
#ff200d
#ff200d
#ff200d
#ff200d
#fef9f6
#fef9f6
#fef9f6
#fef9f6
#fef9f6
#fef9f6
#fef9f6
#fef9f6
#fef9f6
#fef9f6
#fef9f6
#fef9f6
#fef9f6
#fef9f6
#fef9f6
#fef9f6
#fef9f6
#fef9f6
#fef9f6
#ff200d
#ff200d
#ff200d
#ff200d
#ff200d
#ff200d
#ff200d
#ff200d
#ff200d
#ff200d
#ff200d
#ff200d
#fef9f6
#fef9f6
#fef9f6
#fef9f6
#fef9f6
#fef9f6
#fef9f6
#fef9f6
#fef9f6
#fef9f6
#fef9f6
#fef9f6
#fef9f6
#fef9f6
#fef9f6
#fef9f6
#fef9f6
#fef9f6
#fef9f6
#fef9f6
#fef9f6
#fef9f6
#fef9f6
#fef9f6
#fef9f6
#fef9f6
#fef9f6
#fef9f6
#fef9f6
#fef9f6
#fef9f6
#fef9f6
#fef9f6
#fef9f6
#ff200d
#ff200d
#ff200d
#ff200d
#ff200d
#ff200d
#ff200d
#ff200d
#ff200d
#ff200d
#ff200d
#ff200d
#ff200d
#ff200d
#ff200d
#fef9f6
#fef9f6
#fef9f6
#fef9f6
#fef9f6
#fef9f6
#fef9f6
#fef9f6
#fef9f6
#fef9f6
#fef9f6
#fef9f6
#fef9f6
#fef9f6
#fef9f6
#fef9f6
#fef9f6
#fef9f6
#fef9f6
#fef9f6
#ff200d
#ff200d
#ff200d
#ff200d
#ff200d
#ff200d
#ff200d
#ff200d
#ff200d
#ff200d
#ff200d
#ff200d
#fef9f6
#fef9f6
#fef9f6
#fef9f6
#fef9f6
#fef9f6
#fef9f6
#fef9f6
#fef9f6
#fef9f6
#fef9f6
#fef9f6
#fef9f6
#fef9f6
#fef9f6
#fef9f6
#fef9f6
#fef9f6
#fef9f6
#fef9f6
#fef9f6
#fef9f6
#fef9f6
#fef9f6
#fef9f6
#fef9f6
#fef9f6
#fef9f6
#fef9f6
#fef9f6
#fef9f6
#fef9f6
#fef9f6
#ff200d
#ff200d
#ff200d
#ff200d
#ff200d
#ff200d
#ff200d
#ff200d
#ff200d
#ff200d
#ff200d
#ff200d
#ff200d
#ff200d
#ff200d
#fef9f6
#fef9f6
#fef9f6
#fef9f6
#fef9f6
#fef9f6
#fef9f6
#fef9f6
#fef9f6
#fef9f6
#fef9f6
#fef9f6
#fef9f6
#fef9f6
#fef9f6
#fef9f6
#fef9f6
#fef9f6
#fef9f6
#fef9f6
#fef9f6
#ff200d
#ff200d
#ff200d
#ff200d
#ff200d
#ff200d
#ff200d
#ff200d
#ff200d
#ff200d
#ff200d
#ff200d
#fef9f6
#fef9f6
#fef9f6
#fef9f6
#fef9f6
#fef9f6
#fef9f6
#fef9f6
#fef9f6
#fef9f6
#fef9f6
#fef9f6
#fef9f6
#fef9f6
#fef9f6
#fef9f6
#fef9f6
#fef9f6
#fef9f6
#fef9f6
#fef9f6
#fef9f6
#fef9f6
#fef9f6
#fef9f6
#fef9f6
#fef9f6
#fef9f6
#fef9f6
#fef9f6
#fef9f6
#fef9f6
#ff200d
#ff200d
#ff200d
#ff200d
#ff200d
#ff200d
#ff200d
#ff200d
#ff200d
#ff200d
#ff200d
#ff200d
#ff200d
#ff200d
#ff200d
#fef9f6
#fef9f6
#fef9f6
#fef9f6
#fef9f6
#fef9f6
#fef9f6
#fef9f6
#fef9f6
#fef9f6
#fef9f6
#fef9f6
#fef9f6
#fef9f6
#fef9f6
#fef9f6
#fef9f6
#fef9f6
#fef9f6
#fef9f6
#fef9f6
#fef9f6
#ff200d
#ff200d
#ff200d
#ff200d
#ff200d
#ff200d
#ff200d
#ff200d
#ff200d
#ff200d
#ff200d
#ff200d
#fef9f6
#fef9f6
#fef9f6
#fef9f6
#fef9f6
#fef9f6
#fef9f6
#fef9f6
#fef9f6
#fef9f6
#ff200d
#fef9f6
#fef9f6
#fef9f6
#fef9f6
#fef9f6
#fef9f6
#ff200d
#ff200d
#ff200d
#fef9f6
#fef9f6
#fef9f6
#fef9f6
#fef9f6
#fef9f6
#fef9f6
#fef9f6
#fef9f6
#fef9f6
#fef9f6
#ff200d
#ff200d
#ff200d
#ff200d
#ff200d
#ff200d
#ff200d
#ff200d
#ff200d
#ff200d
#ff200d
#ff200d
#ff200d
#ff200d
#ff200d
#fef9f6
#fef9f6
#fef9f6
#fef9f6
#fef9f6
#fef9f6
#fef9f6
#fef9f6
#fef9f6
#fef9f6
#fef9f6
#fef9f6
#fef9f6
#fef9f6
#fef9f6
#fef9f6
#fef9f6
#fef9f6
#fef9f6
#fef9f6
#fef9f6
#fef9f6
#fef9f6
#ff200d
#ff200d
#ff200d
#ff200d
#ff200d
#ff200d
#ff200d
#ff200d
#ff200d
#ff200d
#ff200d
#ff200d
#ff200d
#fef9f6
#fef9f6
#fef9f6
#fef9f6
#fef9f6
#fef9f6
#fef9f6
#ff200d
#ff200d
#ff200d
#fef9f6
#fef9f6
#fef9f6
#fef9f6
#fef9f6
#fef9f6
#ff200d
#ff200d
#ff200d
#ff200d
#fef9f6
#fef9f6
#fef9f6
#fef9f6
#fef9f6
#fef9f6
#fef9f6
#fef9f6
#fef9f6
#ff200d
#ff200d
#ff200d
#ff200d
#ff200d
#ff200d
#ff200d
#ff200d
#ff200d
#ff200d
#ff200d
#ff200d
#ff200d
#ff200d
#ff200d
#fef9f6
#fef9f6
#fef9f6
#fef9f6
#fef9f6
#fef9f6
#fef9f6
#fef9f6
#fef9f6
#fef9f6
#fef9f6
#fef9f6
#fef9f6
#fef9f6
#fef9f6
#fef9f6
#fef9f6
#fef9f6
#fef9f6
#fef9f6
#ff200d
#ff200d
#fef9f6
#fef9f6
#fef9f6
#ff200d
#ff200d
#ff200d
#ff200d
#ff200d
#ff200d
#ff200d
#ff200d
#ff200d
#ff200d
#ff200d
#ff200d
#fef9f6
#fef9f6
#fef9f6
#fef9f6
#fef9f6
#fef9f6
#ff200d
#ff200d
#ff200d
#fef9f6
#fef9f6
#fef9f6
#fef9f6
#fef9f6
#fef9f6
#fef9f6
#ff200d
#ff200d
#ff200d
#ff200d
#fef9f6
#fef9f6
#fef9f6
#fef9f6
#fef9f6
#fef9f6
#fef9f6
#fef9f6
#ff200d
#ff200d
#ff200d
#ff200d
#ff200d
#ff200d
#ff200d
#ff200d
#ff200d
#ff200d
#ff200d
#ff200d
#ff200d
#ff200d
#ff200d
#fef9f6
#fef9f6
#fef9f6
#fef9f6
#fef9f6
#fef9f6
#fef9f6
#fef9f6
#fef9f6
#fef9f6
#fef9f6
#fef9f6
#fef9f6
#fef9f6
#fef9f6
#fef9f6
#fef9f6
#fef9f6
#fef9f6
#fef9f6
#ff200d
#ff200d
#ff200d
#fef9f6
#fef9f6
#fef9f6
#ff200d
#ff200d
#ff200d
#ff200d
#ff200d
#ff200d
#ff200d
#ff200d
#ff200d
#ff200d
#ff200d
#ff200d
#ff200d
#fef9f6
#fef9f6
#ff200d
#ff200d
#ff200d
#ff200d
#ff200d
#fef9f6
#fef9f6
#fef9f6
#fef9f6
#fef9f6
#fef9f6
#fef9f6
#ff200d
#ff200d
#ff200d
#ff200d
#ff200d
#fef9f6
#fef9f6
#fef9f6
#fef9f6
#fef9f6
#fef9f6
#fef9f6
#ff200d
#ff200d
#ff200d
#ff200d
#ff200d
#ff200d
#ff200d
#ff200d
#ff200d
#ff200d
#ff200d
#ff200d
#ff200d
#ff200d
#ff200d
#fef9f6
#fef9f6
#fef9f6
#fef9f6
#fef9f6
#fef9f6
#fef9f6
#fef9f6
#fef9f6
#fef9f6
#fef9f6
#fef9f6
#fef9f6
#fef9f6
#fef9f6
#fef9f6
#fef9f6
#fef9f6
#fef9f6
#ff200d
#ff200d
#ff200d
#ff200d
#ff200d
#fef9f6
#fef9f6
#fef9f6
#ff200d
#ff200d
#ff200d
#ff200d
#ff200d
#ff200d
#ff200d
#ff200d
#ff200d
#ff200d
#ff200d
#ff200d
#ff200d
#ff200d
#ff200d
#ff200d
#ff200d
#ff200d
#ff200d
#fef9f6
#fef9f6
#fef9f6
#fef9f6
#fef9f6
#fef9f6
#fef9f6
#ff200d
#ff200d
#ff200d
#ff200d
#ff200d
#ff200d
#fef9f6
#fef9f6
#fef9f6
#fef9f6
#fef9f6
#fef9f6
#ff200d
#ff200d
#ff200d
#ff200d
#ff200d
#ff200d
#ff200d
#ff200d
#ff200d
#ff200d
#ff200d
#ff200d
#ff200d
#ff200d
#ff200d
#ff200d
#fef9f6
#fef9f6
#fef9f6
#fef9f6
#fef9f6
#fef9f6
#fef9f6
#fef9f6
#fef9f6
#fef9f6
#fef9f6
#fef9f6
#fef9f6
#fef9f6
#fef9f6
#fef9f6
#fef9f6
#ff200d
#ff200d
#ff200d
#ff200d
#ff200d
#ff200d
#ff200d
#fef9f6
#fef9f6
#fef9f6
#ff200d
#ff200d
#ff200d
#ff200d
#ff200d
#ff200d
#ff200d
#ff200d
#ff200d
#ff200d
#ff200d
#ff200d
#ff200d
#ff200d
#ff200d
#ff200d
#ff200d
#ff200d
#fef9f6
#fef9f6
#fef9f6
#fef9f6
#fef9f6
#fef9f6
#fef9f6
#ff200d
#ff200d
#ff200d
#ff200d
#ff200d
#ff200d
#fef9f6
#fef9f6
#fef9f6
#fef9f6
#fef9f6
#fef9f6
#ff200d
#ff200d
#ff200d
#ff200d
#ff200d
#ff200d
#ff200d
#ff200d
#ff200d
#ff200d
#ff200d
#ff200d
#ff200d
#ff200d
#ff200d
#ff200d
#fef9f6
#fef9f6
#fef9f6
#fef9f6
#fef9f6
#fef9f6
#fef9f6
#fef9f6
#fef9f6
#fef9f6
#fef9f6
#fef9f6
#fef9f6
#fef9f6
#fef9f6
#fef9f6
#ff200d
#ff200d
#ff200d
#ff200d
#ff200d
#ff200d
#ff200d
#ff200d
#ff200d
#ff200d
#fef9f6
#fef9f6
#ff200d
#ff200d
#ff200d
#ff200d
#ff200d
#ff200d
#ff200d
#ff200d
#ff200d
#ff200d
#ff200d
#ff200d
#ff200d
#ff200d
#ff200d
#ff200d
#ff200d
#fef9f6
#fef9f6
#fef9f6
#fef9f6
#fef9f6
#fef9f6
#fef9f6
#ff200d
#ff200d
#ff200d
#ff200d
#ff200d
#ff200d
#ff200d
#fef9f6
#fef9f6
#fef9f6
#fef9f6
#fef9f6
#ff200d
#ff200d
#ff200d
#ff200d
#ff200d
#ff200d
#ff200d
#ff200d
#ff200d
#ff200d
#ff200d
#ff200d
#ff200d
#ff200d
#ff200d
#ff200d
#ff200d
#fef9f6
#fef9f6
#fef9f6
#fef9f6
#fef9f6
#fef9f6
#fef9f6
#fef9f6
#fef9f6
#fef9f6
#fef9f6
#fef9f6
#fef9f6
#fef9f6
#ff200d
#ff200d
#ff200d
#ff200d
#ff200d
#ff200d
#ff200d
#ff200d
#ff200d
#ff200d
#ff200d
#fef9f6
#fef9f6
#fef9f6
#ff200d
#ff200d
#ff200d
#ff200d
#ff200d
#ff200d
#ff200d
#ff200d
#ff200d
#ff200d
#ff200d
#ff200d
#ff200d
#ff200d
#ff200d
#ff200d
#fef9f6
#fef9f6
#fef9f6
#fef9f6
#fef9f6
#fef9f6
#ff200d
#ff200d
#ff200d
#ff200d
#ff200d
#ff200d
#ff200d
#ff200d
#fef9f6
#fef9f6
#fef9f6
#fef9f6
#fef9f6
#fef9f6
#ff200d
#ff200d
#ff200d
#ff200d
#ff200d
#ff200d
#ff200d
#ff200d
#ff200d
#ff200d
#ff200d
#ff200d
#ff200d
#ff200d
#ff200d
#ff200d
#ff200d
#fef9f6
#fef9f6
#fef9f6
#fef9f6
#fef9f6
#fef9f6
#fef9f6
#fef9f6
#fef9f6
#fef9f6
#fef9f6
#fef9f6
#ff200d
#ff200d
#ff200d
#ff200d
#ff200d
#ff200d
#ff200d
#ff200d
#ff200d
#ff200d
#ff200d
#ff200d
#fef9f6
#fef9f6
#fef9f6
#ff200d
#ff200d
#ff200d
#ff200d
#ff200d
#ff200d
#ff200d
#ff200d
#ff200d
#ff200d
#ff200d
#ff200d
#ff200d
#ff200d
#ff200d
#fef9f6
#fef9f6
#fef9f6
#fef9f6
#fef9f6
#fef9f6
#ff200d
#ff200d
#ff200d
#ff200d
#ff200d
#ff200d
#ff200d
#ff200d
#ff200d
#fef9f6
#fef9f6
#fef9f6
#fef9f6
#fef9f6
#fef9f6
#ff200d
#ff200d
#ff200d
#ff200d
#ff200d
#ff200d
#ff200d
#ff200d
#ff200d
#ff200d
#ff200d
#ff200d
#ff200d
#ff200d
#ff200d
#ff200d
#ff200d
#ff200d
#fef9f6
#fef9f6
#fef9f6
#fef9f6
#fef9f6
#fef9f6
#fef9f6
#fef9f6
#fef9f6
#fef9f6
#ff200d
#ff200d
#ff200d
#ff200d
#ff200d
#ff200d
#ff200d
#ff200d
#ff200d
#ff200d
#ff200d
#ff200d
#fef9f6
#fef9f6
#fef9f6
#fef9f6
#ff200d
#ff200d
#ff200d
#ff200d
#ff200d
#ff200d
#ff200d
#ff200d
#ff200d
#ff200d
#ff200d
#ff200d
#ff200d
#ff200d
#ff200d
#fef9f6
#fef9f6
#fef9f6
#ff200d
#ff200d
#ff200d
#ff200d
#ff200d
#ff200d
#ff200d
#ff200d
#ff200d
#ff200d
#ff200d
#ff200d
#fef9f6
#fef9f6
#fef9f6
#fef9f6
#fef9f6
#fef9f6
#ff200d
#ff200d
#ff200d
#ff200d
#ff200d
#ff200d
#ff200d
#ff200d
#ff200d
#ff200d
#ff200d
#ff200d
#ff200d
#ff200d
#ff200d
#ff200d
#ff200d
#ff200d
#ff200d
#ff200d
#fef9f6
#fef9f6
#fef9f6
#fef9f6
#fef9f6
#fef9f6
#ff200d
#ff200d
#ff200d
#ff200d
#ff200d
#ff200d
#ff200d
#ff200d
#ff200d
#ff200d
#ff200d
#ff200d
#ff200d
#fef9f6
#fef9f6
#fef9f6
#fef9f6
#fef9f6
#ff200d
#ff200d
#ff200d
#ff200d
#ff200d
#ff200d
#ff200d
#ff200d
#ff200d
#ff200d
#ff200d
#ff200d
#ff200d
#ff200d
#ff200d
#ff200d
#ff200d
#ff200d
#ff200d
#ff200d
#ff200d
#ff200d
#ff200d
#ff200d
#ff200d
#ff200d
#ff200d
#ff200d
#ff200d
#ff200d
#fef9f6
#fef9f6
#fef9f6
#fef9f6
#fef9f6
#fef9f6
#fef9f6
#ff200d
#ff200d
#ff200d
#ff200d
#ff200d
#ff200d
#ff200d
#ff200d
#ff200d
#ff200d
#ff200d
#ff200d
#ff200d
#ff200d
#ff200d
#ff200d
#ff200d
#ff200d
#ff200d
#ff200d
#ff200d
#ff200d
#ff200d
#ff200d
#ff200d
#ff200d
#ff200d
#ff200d
#ff200d
#ff200d
#ff200d
#ff200d
#ff200d
#ff200d
#ff200d
#ff200d
#ff200d
#ff200d
#fef9f6
#fef9f6
#fef9f6
#fef9f6
#fef9f6
#ff200d
#ff200d
#ff200d
#ff200d
#ff200d
#ff200d
#ff200d
#ff200d
#ff200d
#ff200d
#ff200d
#ff200d
#ff200d
#ff200d
#ff200d
#ff200d
#ff200d
#ff200d
#ff200d
#ff200d
#ff200d
#ff200d
#ff200d
#ff200d
#ff200d
#ff200d
#ff200d
#ff200d
#ff200d
#ff200d
#fef9f6
#fef9f6
#fef9f6
#fef9f6
#fef9f6
#fef9f6
#fef9f6
#ff200d
#ff200d
#ff200d
#ff200d
#ff200d
#ff200d
#ff200d
#ff200d
#ff200d
#ff200d
#ff200d
#ff200d
#ff200d
#ff200d
#ff200d
#ff200d
#ff200d
#ff200d
#ff200d
#ff200d
#ff200d
#ff200d
#ff200d
#ff200d
#ff200d
#ff200d
#ff200d
#ff200d
#ff200d
#ff200d
#ff200d
#ff200d
#ff200d
#ff200d
#ff200d
#ff200d
#ff200d
#fef9f6
#fef9f6
#fef9f6
#fef9f6
#fef9f6
#fef9f6
#ff200d
#ff200d
#ff200d
#ff200d
#ff200d
#ff200d
#ff200d
#ff200d
#ff200d
#ff200d
#ff200d
#ff200d
#ff200d
#ff200d
#ff200d
#ff200d
#ff200d
#ff200d
#ff200d
#ff200d
#ff200d
#ff200d
#ff200d
#ff200d
#ff200d
#ff200d
#ff200d
#ff200d
#ff200d
#fef9f6
#fef9f6
#fef9f6
#fef9f6
#fef9f6
#fef9f6
#fef9f6
#fef9f6
#fef9f6
#ff200d
#ff200d
#ff200d
#ff200d
#ff200d
#ff200d
#ff200d
#ff200d
#ff200d
#ff200d
#ff200d
#ff200d
#ff200d
#ff200d
#ff200d
#ff200d
#ff200d
#ff200d
#ff200d
#ff200d
#ff200d
#ff200d
#ff200d
#ff200d
#ff200d
#ff200d
#ff200d
#ff200d
#ff200d
#ff200d
#ff200d
#ff200d
#ff200d
#ff200d
#ff200d
#fef9f6
#fef9f6
#fef9f6
#fef9f6
#fef9f6
#fef9f6
#fef9f6
#ff200d
#ff200d
#ff200d
#ff200d
#ff200d
#ff200d
#ff200d
#ff200d
#ff200d
#ff200d
#ff200d
#ff200d
#ff200d
#ff200d
#ff200d
#ff200d
#ff200d
#ff200d
#ff200d
#ff200d
#ff200d
#ff200d
#ff200d
#ff200d
#ff200d
#ff200d
#ff200d
#ff200d
#ff200d
#fef9f6
#fef9f6
#fef9f6
#fef9f6
#fef9f6
#fef9f6
#fef9f6
#fef9f6
#fef9f6
#ff200d
#ff200d
#ff200d
#ff200d
#ff200d
#ff200d
#ff200d
#ff200d
#ff200d
#ff200d
#ff200d
#ff200d
#ff200d
#ff200d
#ff200d
#ff200d
#ff200d
#ff200d
#ff200d
#ff200d
#ff200d
#ff200d
#ff200d
#ff200d
#ff200d
#ff200d
#ff200d
#ff200d
#ff200d
#ff200d
#ff200d
#ff200d
#ff200d
#ff200d
#ff200d
#fef9f6
#fef9f6
#fef9f6
#fef9f6
#fef9f6
#fef9f6
#fef9f6
#ff200d
#ff200d
#ff200d
#ff200d
#ff200d
#fef9f6
#ff200d
#ff200d
#ff200d
#ff200d
#ff200d
#ff200d
#ff200d
#ff200d
#ff200d
#ff200d
#ff200d
#ff200d
#ff200d
#ff200d
#ff200d
#ff200d
#ff200d
#ff200d
#ff200d
#ff200d
#ff200d
#ff200d
#fef9f6
#fef9f6
#fef9f6
#fef9f6
#fef9f6
#fef9f6
#fef9f6
#fef9f6
#fef9f6
#fef9f6
#fef9f6
#ff200d
#fef9f6
#ff200d
#ff200d
#ff200d
#ff200d
#ff200d
#ff200d
#ff200d
#ff200d
#ff200d
#ff200d
#ff200d
#ff200d
#ff200d
#ff200d
#ff200d
#ff200d
#ff200d
#ff200d
#ff200d
#ff200d
#ff200d
#ff200d
#ff200d
#ff200d
#ff200d
#ff200d
#ff200d
#ff200d
#ff200d
#ff200d
#ff200d
#fef9f6
#fef9f6
#fef9f6
#fef9f6
#fef9f6
#fef9f6
#fef9f6
#fef9f6
#ff200d
#ff200d
#ff200d
#ff200d
#ff200d
#fef9f6
#ff200d
#ff200d
#ff200d
#ff200d
#ff200d
#ff200d
#ff200d
#ff200d
#ff200d
#ff200d
#ff200d
#ff200d
#ff200d
#ff200d
#ff200d
#ff200d
#ff200d
#ff200d
#ff200d
#ff200d
#ff200d
#fef9f6
#fef9f6
#fef9f6
#fef9f6
#fef9f6
#fef9f6
#fef9f6
#fef9f6
#fef9f6
#fef9f6
#fef9f6
#fef9f6
#fef9f6
#fef9f6
#fef9f6
#ff200d
#ff200d
#ff200d
#ff200d
#ff200d
#ff200d
#ff200d
#ff200d
#ff200d
#ff200d
#ff200d
#ff200d
#ff200d
#ff200d
#ff200d
#ff200d
#ff200d
#ff200d
#ff200d
#ff200d
#ff200d
#ff200d
#ff200d
#ff200d
#ff200d
#ff200d
#ff200d
#ff200d
#ff200d
#fef9f6
#fef9f6
#fef9f6
#fef9f6
#fef9f6
#fef9f6
#fef9f6
#fef9f6
#fef9f6
#fef9f6
#ff200d
#ff200d
#ff200d
#fef9f6
#fef9f6
#ff200d
#ff200d
#ff200d
#ff200d
#ff200d
#ff200d
#ff200d
#ff200d
#ff200d
#ff200d
#ff200d
#ff200d
#ff200d
#ff200d
#ff200d
#ff200d
#ff200d
#ff200d
#ff200d
#fef9f6
#fef9f6
#fef9f6
#fef9f6
#fef9f6
#fef9f6
#fef9f6
#fef9f6
#fef9f6
#fef9f6
#fef9f6
#fef9f6
#fef9f6
#fef9f6
#fef9f6
#fef9f6
#fef9f6
#fef9f6
#ff200d
#ff200d
#ff200d
#ff200d
#ff200d
#ff200d
#ff200d
#ff200d
#ff200d
#ff200d
#ff200d
#ff200d
#ff200d
#ff200d
#ff200d
#ff200d
#ff200d
#ff200d
#ff200d
#ff200d
#ff200d
#ff200d
#ff200d
#ff200d
#ff200d
#ff200d
#ff200d
#fef9f6
#fef9f6
#fef9f6
#fef9f6
#fef9f6
#fef9f6
#fef9f6
#fef9f6
#fef9f6
#fef9f6
#fef9f6
#ff200d
#ff200d
#ff200d
#fef9f6
#fef9f6
#fef9f6
#ff200d
#ff200d
#ff200d
#ff200d
#ff200d
#ff200d
#ff200d
#ff200d
#ff200d
#ff200d
#ff200d
#ff200d
#ff200d
#ff200d
#ff200d
#ff200d
#fef9f6
#fef9f6
#fef9f6
#fef9f6
#fef9f6
#fef9f6
#fef9f6
#fef9f6
#fef9f6
#fef9f6
#fef9f6
#fef9f6
#fef9f6
#fef9f6
#fef9f6
#fef9f6
#fef9f6
#fef9f6
#fef9f6
#fef9f6
#fef9f6
#ff200d
#ff200d
#ff200d
#ff200d
#ff200d
#ff200d
#ff200d
#ff200d
#ff200d
#ff200d
#ff200d
#ff200d
#ff200d
#ff200d
#ff200d
#ff200d
#ff200d
#ff200d
#ff200d
#ff200d
#ff200d
#ff200d
#ff200d
#ff200d
#fef9f6
#fef9f6
#fef9f6
#fef9f6
#fef9f6
#fef9f6
#fef9f6
#fef9f6
#fef9f6
#fef9f6
#fef9f6
#fef9f6
#fef9f6
#ff200d
#ff200d
#ff200d
#fef9f6
#fef9f6
#fef9f6
#ff200d
#ff200d
#ff200d
#ff200d
#ff200d
#ff200d
#ff200d
#ff200d
#ff200d
#ff200d
#ff200d
#ff200d
#fef9f6
#fef9f6
#fef9f6
#fef9f6
#fef9f6
#fef9f6
#fef9f6
#fef9f6
#fef9f6
#fef9f6
#fef9f6
#fef9f6
#fef9f6
#fef9f6
#fef9f6
#fef9f6
#fef9f6
#fef9f6
#fef9f6
#fef9f6
#fef9f6
#fef9f6
#fef9f6
#fef9f6
#fef9f6
#fef9f6
#fef9f6
#ff200d
#ff200d
#ff200d
#ff200d
#ff200d
#ff200d
#ff200d
#ff200d
#ff200d
#ff200d
#ff200d
#ff200d
#ff200d
#ff200d
#ff200d
#ff200d
#ff200d
#ff200d
#ff200d
#ff200d
#ff200d
#fef9f6
#fef9f6
#fef9f6
#fef9f6
#fef9f6
#fef9f6
#fef9f6
#fef9f6
#fef9f6
#fef9f6
#fef9f6
#fef9f6
#fef9f6
#fef9f6
#fef9f6
#ff200d
#ff200d
#fef9f6
#fef9f6
#fef9f6
#fef9f6
#ff200d
#ff200d
#ff200d
#ff200d
#ff200d
#ff200d
#ff200d
#ff200d
#ff200d
#ff200d
#ff200d
#ff200d
#fef9f6
#fef9f6
#fef9f6
#fef9f6
#fef9f6
#fef9f6
#fef9f6
#fef9f6
#fef9f6
#fef9f6
#fef9f6
#fef9f6
#fef9f6
#fef9f6
#fef9f6
#fef9f6
#fef9f6
#fef9f6
#fef9f6
#fef9f6
#fef9f6
#fef9f6
#fef9f6
#fef9f6
#fef9f6
#fef9f6
#fef9f6
#fef9f6
#ff200d
#ff200d
#ff200d
#ff200d
#ff200d
#ff200d
#ff200d
#ff200d
#ff200d
#ff200d
#ff200d
#ff200d
#ff200d
#ff200d
#ff200d
#ff200d
#ff200d
#fef9f6
#fef9f6
#fef9f6
#fef9f6
#fef9f6
#fef9f6
#fef9f6
#fef9f6
#fef9f6
#fef9f6
#fef9f6
#fef9f6
#fef9f6
#fef9f6
#fef9f6
#fef9f6
#fef9f6
#fef9f6
#ff200d
#fef9f6
#fef9f6
#fef9f6
#fef9f6
#fef9f6
#ff200d
#ff200d
#ff200d
#ff200d
#ff200d
#ff200d
#ff200d
#ff200d
#ff200d
#ff200d
#ff200d
#ff200d
#ff200d
#ff200d
#ff200d
#ff200d
#fef9f6
#fef9f6
#fef9f6
#fef9f6
#fef9f6
#fef9f6
#fef9f6
#fef9f6
#fef9f6
#fef9f6
#fef9f6
#fef9f6
#fef9f6
#fef9f6
#fef9f6
#fef9f6
#fef9f6
#fef9f6
#fef9f6
#fef9f6
#fef9f6
#fef9f6
#fef9f6
#fef9f6
#fef9f6
#ff200d
#ff200d
#ff200d
#ff200d
#ff200d
#ff200d
#ff200d
#ff200d
#ff200d
#ff200d
#ff200d
#ff200d
#fef9f6
#fef9f6
#fef9f6
#fef9f6
#fef9f6
#fef9f6
#fef9f6
#fef9f6
#fef9f6
#fef9f6
#fef9f6
#fef9f6
#fef9f6
#fef9f6
#fef9f6
#fef9f6
#fef9f6
#fef9f6
#fef9f6
#fef9f6
#fef9f6
#fef9f6
#fef9f6
#fef9f6
#fef9f6
#fef9f6
#fef9f6
#fef9f6
#ff200d
#ff200d
#ff200d
#ff200d
#ff200d
#ff200d
#ff200d
#ff200d
#ff200d
#ff200d
#ff200d
#ff200d
#ff200d
#ff200d
#fef9f6
#fef9f6
#fef9f6
#fef9f6
#fef9f6
#fef9f6
#fef9f6
#fef9f6
#fef9f6
#fef9f6
#fef9f6
#fef9f6
#fef9f6
#fef9f6
#fef9f6
#fef9f6
#fef9f6
#fef9f6
#fef9f6
#fef9f6
#fef9f6
#fef9f6
#fef9f6
#fef9f6
#fef9f6
#fef9f6
#fef9f6
#fef9f6
#fef9f6
#fef9f6
#fef9f6
#fef9f6
#fef9f6
#fef9f6
#fef9f6
#fef9f6
#fef9f6
#fef9f6
#fef9f6
#fef9f6
#fef9f6
#fef9f6
#fef9f6
#fef9f6
#fef9f6
#fef9f6
#fef9f6
#fef9f6
#fef9f6
#fef9f6
#fef9f6
#fef9f6
#fef9f6
#fef9f6
#fef9f6
#fef9f6
#fef9f6
#fef9f6
#fef9f6
#fef9f6
#fef9f6
#fef9f6
#fef9f6
#fef9f6
#fef9f6
#fef9f6
#fef9f6
#ff200d
#ff200d
#ff200d
#ff200d
#ff200d
#ff200d
#ff200d
#ff200d
#ff200d
#ff200d
#ff200d
#fef9f6
#fef9f6
#fef9f6
#fef9f6
#fef9f6
#fef9f6
#fef9f6
#fef9f6
#fef9f6
#fef9f6
#fef9f6
#fef9f6
#fef9f6
#fef9f6
#fef9f6
#fef9f6
#fef9f6
#fef9f6
#fef9f6
#fef9f6
#fef9f6
#fef9f6
#fef9f6
#fef9f6
#fef9f6
#fef9f6
#fef9f6
#fef9f6
#fef9f6
#fef9f6
#fef9f6
#fef9f6
#fef9f6
#fef9f6
#fef9f6
#fef9f6
#fef9f6
#fef9f6
#fef9f6
#fef9f6
#fef9f6
#fef9f6
#fef9f6
#fef9f6
#fef9f6
#fef9f6
#fef9f6
#fef9f6
#fef9f6
#fef9f6
#fef9f6
#fef9f6
#fef9f6
#fef9f6
#fef9f6
#fef9f6
#fef9f6
#fef9f6
#fef9f6
#fef9f6
#fef9f6
#fef9f6
#fef9f6
#fef9f6
#fef9f6
#fef9f6
#fef9f6
#fef9f6
#fef9f6
#fef9f6
#fef9f6
#fef9f6
#ff200d
#ff200d
#ff200d
#ff200d
#fef9f6
#fef9f6
#fef9f6
#fef9f6
#fef9f6
#fef9f6
#fef9f6
#fef9f6
#fef9f6
#fef9f6
#fef9f6
#fef9f6
#fef9f6
#fef9f6
#fef9f6
#fef9f6
#fef9f6
#fef9f6
#fef9f6
#fef9f6
#fef9f6
#fef9f6
#fef9f6
#fef9f6
#fef9f6
#fef9f6
#fef9f6
#fef9f6
#fef9f6
#fef9f6
#fef9f6
#fef9f6
#fef9f6
#fef9f6
#fef9f6
#fef9f6
#fef9f6
#fef9f6
#fef9f6
#fef9f6
#fef9f6
#fef9f6
#fef9f6
#fef9f6
#fef9f6
#fef9f6
#fef9f6
#fef9f6
#fef9f6
#fef9f6
#fef9f6
#fef9f6
#fef9f6
#fef9f6
#fef9f6
#fef9f6
#fef9f6
#fef9f6
#fef9f6
#fef9f6
#fef9f6
#fef9f6
#fef9f6
#fef9f6
#fef9f6
#fef9f6
#fef9f6
#fef9f6
#fef9f6
#fef9f6
#fef9f6
#fef9f6
#fef9f6
#fef9f6
#fef9f6
#fef9f6
#fef9f6
#fef9f6
#fef9f6
#fef9f6
#fef9f6
#fef9f6
#fef9f6
#fef9f6
#fef9f6
#fef9f6
#fef9f6
#fef9f6
#fef9f6
#fef9f6
#fef9f6
#fef9f6
#fef9f6
#fef9f6
#fef9f6
#fef9f6
#fef9f6
#fef9f6
#fef9f6
#fef9f6
#fef9f6
#fef9f6
#fef9f6
#fef9f6
#fef9f6
#fef9f6
#fef9f6
#fef9f6
#fef9f6
#fef9f6
#fef9f6
#fef9f6
#fef9f6
#fef9f6
#fef9f6
#fef9f6
#fef9f6
#fef9f6
#fef9f6
#fef9f6
#fef9f6
#fef9f6
#fef9f6
#fef9f6
#fef9f6
#fef9f6
#fef9f6
#fef9f6
#fef9f6
#fef9f6
#fef9f6
#fef9f6
#fef9f6
#fef9f6
#fef9f6
#fef9f6
#fef9f6
#fef9f6
#fef9f6
#fef9f6
#fef9f6
#fef9f6
#fef9f6
#fef9f6
#fef9f6
#fef9f6
#fef9f6
#fef9f6
#fef9f6
#fef9f6
#fef9f6
#fef9f6
#fef9f6
#fef9f6
#fef9f6
#fef9f6
#fef9f6
#fef9f6
#fef9f6
#fef9f6
#fef9f6
#fef9f6
#fef9f6
#fef9f6
#fef9f6
#fef9f6
#fef9f6
#fef9f6
#fef9f6
#fef9f6
#fef9f6
#fef9f6
#fef9f6
#fef9f6
#fef9f6
