9910000000000000000000001100000000000000000000111011111111111111111111111111111111111122211110000000
9911000000000000000000000111110001111000000011111111111111111111111111111111111221112222211111000000
0011000000000000000000000111111011111100011111111111111111111111111111111111112222222222211111100000
0011000000000000000000001111111111111111111111111111111111111111111111111111122222222222211111000000
0011100000000000000000001111111111111111111111111111111111111111111111111111222222222222111110000000
0011100000000000000000001111111111111111111111111111111111111111111111111111222222222221111110000000
0011100000000000000000001111111111111111111111111111111111111111111111111111222222212111111000000000
0011100000000000000000001122111111111111111111111111111111111111111111111111122222111111110000000000
0111110000000000000000001111111111111111111111111111111111111111111111111111111111111111100000000004
0111110000000000000000001111111111111111111111111111111111111111111111111111111111110000000000000000
1111110000000000000000011111111111111111111111111111111111111111111111111111111111100000000000000000
0112110000000000000000011111111111111111111111222221111111111111111111111111111111100000000000000000
0111100000000000000000111111111111111111111122222222211122222222222211111111111111100000000000000000
1111100000000000000001111111111111111111112222222222211222222222222222222112111111110000000000000000
0111000000000010111111111111111111122211222222222222222222222222222222222222211111111000000000000000
0111000000000011111111111111111221122222222222222222222222222222222222222222221122111000000000000000
0111000000000011111111111111112222222222222222223222222222222222222222222222222222211000000000000000
0111100000000011111111111112112222222222222222333332222222222222222222222222222222211000000000000110
1111100000000111111111111112222222222222222233333333333322222222222222222222222222110000000000000100
1111110000000111111111111111222222222222333333333333333333333333333222222222222222110000000000000110
1111111111001111111111111111222222222222333333333333333333333333333322222222222221110000000010001100
1111111111111111111111112111222222222233333333555533333333333333333332222222222222111100001110011110
1111111111111111111111222222222222233333333335555533333333333333333333332222222222211110001111111100
1211111111111111111112222222222222333333333555555533335555533333333333333222222222211111111111111100
1221111111111111111112222222222233333333335555555553555555555555333333333322222222222111112211111100
1111111111111111111222222222222233333335555555555555555555555555553333333332233332222222122222111100
1111111111111111111222222222222333333355555555555555555555555555555555333333333333222222222222211100
1111111111111111112222222222222333333555555555555555555555555555555555533333333333222222222222111100
0001111111111111112222222223333333335555555555555555555555556665555555533333333333222222222221111110
0000011111111111112222222233333333555555556665555555555555566665555555555553333332222222222221111111
0000011111111111111222222333333335555555666665555555555555666666555555555553333222222222222221111111
0000000111111111111122222333333355555556666666555555555555666666665555555555333222222222233221111111
0000000011111111111112222223333355555566666666655555555556666666666665555555333222222222233222111111
0000000000011011111111222222333555555666666666665555555556666666666666555555333322222222222222111111
0000000000000011111122222222233355556666666666666655555556666666666666555555333322222222222222211111
0000000000000111111122222222223335556666666666666666555556666666666666655555333322222222222222221111
0000000000001111111222223333333335556666666666666666666566666666666666655555333332222222222222221111
0000000000011111112222333333333355566666666666666666666666666666666666665555333332222222222222221111
0000000011111111222222333355555555666666666666666666666666666666666666665555333322222222222222111100
0000000001111122222222333555555556666666666666666666666666666666666666665555333322222222222222111000
0000000001111122222222333355555566666666666466666666666666666644666666665555533332222222222222111000
0000000000111122222222333335555666666666644466666666666666666444666666665555533332222222222221111000
0001110001111222222233333335556666666666644466666666666666666444466666666555533332222222222222111000
0001111111111222222333333555556666666666444466666666666666664444466666666555533332222222222222111000
0011111111122222222333333555556666666666444466666666666666664444666666666555533332222222222221111000
0011111111122222222333333555566666666664446666666666666666644444466666666555533332222222222111110000
0111111111222222222223333555666666666664444666666666666666644444446666666655553332222222222111000000
1111111111222222222223333555666666666664444666666666666666644444466666666665553332222222222211000000
1111111111122222222223333555666666666664444666666666666666644444666666666665555332222222222111000000
1111111111112222222223333555566666666664444666666666666666644444666666666665555332222222222111000000
1111111111122222222333335555566666666664446446666666666666444444666666666665555333222222222110000000
1111111111122222222333335555556666666664444444666666666666446446666666666555555333322222221111000000
1111111111122222223333355555556666666666444444466666666664444466666666665555553333322222221111111000
1111111111122222223333335555556666666666444444446666666644444666666666665555553333322222221111111110
1111111111122222222333333355556666666666444444444466666444444666666666655555333333322222211111111111
1111111111122222222333333355556666666666444444444444444444444666666666655553333333322222211111111111
1111111111122222222223333355556666666666644444464444444444444666666666655553333332222211111111111111
1111111111112222222223333355555666666666644444444444444444444666666666555553333322222211111111111111
1111111111111222222223333355555566666666664444444444444444446666666666555553333322222212211111111111
1111111111111222222223333355555556666666666444444444444444466666666666555533333222222221111111111111
1111111111111222222223333335555555666666666644444444444446666666666666555333333222222221111111111111
1111111111111112222222333333555555666666666666444444444466666666666666555533332222222221111111111111
1111111111111112222222233333555555666666666666644444446666666666666665555533333222222221111111111110
1111111111111112222222233333355555566666666666666646666666666666666665555533333222222221111111111111
1111111111111112222222233333355555556666666666666666666666666666666665555533333222222211111111111111
1111111111111111122222233333355555556666666666666666666666666666666655555533333222222212111111111100
1111111111111111122222223333335555555666666666666666666666666666666655555333333222222111111111111100
0011111111111111122222222333335555555566666666666666666666666666666655555333333222222111111111111000
0001111111111111122222222223333555555566666666666666666666666666666555553333332222222111111111111000
0000000111111111112222222223333335555556666666666666666666666666665555533333222222222111111111111000
0000000111111111112222222223333333555555666666666666666666666666655555533332222222222111111111111110
0000000011111111111222222222333333355555556666666666666666666666655555533332222222211111111111111011
0000000011111111111222222222333333335555555666666666666666666666555555533332222222111111111111100000
0000000001111111112222222222233333333355555555666666666666555555555555333332222221111111111111000000
0000000000111111112233332222223333333355555555566666666665555555555553333332222211111111111110000000
0000000000111111112233332222222333333335555555556666665555555555533333333332222211111111111000000000
0000000000011111112223222222222233333333555555556666555555555555333333333332222111111111111000000000
0000000000011111112222222222222223333333335555555566555555553333333333333322222111111111110000000000
0000000000000011122222222222222222222333333555555555555533333333333333222222222211111111110000000000
0000000000000011122322211222222222222233333335555555533333333333333222222222222222111111100000000000
0000000000000001122332211112222222222223333333355555333332333222332222222222222222211111000000000000
0000000000000001122222111111222222222223333333355533333322222222222222222222222222211110000000000000
0000000000000001111221111111122222222222222233333333332222222222222222222222122222111110000000000000
0000000000000000111111111111111122222222222233333332222222222222222222222221111111111100000000000000
0000000000000000000111111111111111122222222223333322222222222222222222222211111111111100000000000000
0000000000000000000011111111111111112222222222333322122221122221222222221111111111111100000000000000
0000000000000000000011111111111111111112222222332221112111111111111211111111111111100000000000000000
0000000000000000000001111111111111111111221122222211111111111111111111111111111111000000000000000000
0000000000000000000001111111111111111111111112222111111111111111111111111111111100000000000000000000
0000000000000000000000000011111111111111111112222111111111111111111111111111110000000000000000000000
0000000000000000000000000011111111111111111112222111111110111111111111111111110000000000000000000000
0000000000000000000000000001111111111111111112221111111100111101111111111111110000000000000000000000
0000000000000000000000000000011111111111111111221111111000011111111111111111100000000000000000000000
0000000000000000000000000000001111111111100111111111111000011101001000001111100000000000000000000000
0000000000000000000000000000000011111111000011111111111000000000000000000000000000000000000000000000
0000000000000000000000000000000000001110000000111111111000000000000000000000000000000000000000000000
0000000000000000000000000000000000000000000000001111111000000000000000000000000000000000000000000000
0000000000000000000000000000000000000000000000001111111100000000000000000000000000000000000000000000
0000000000000000000000000000000000000000000000000111111100000000000000000000000000000000000000000000
0000000000000000000000000000000000000000000000000011111000000000000000000000000000000000000000000000

